[gd_scene load_steps=2 format=2]

[ext_resource path="res://src/PlayerTapWeapon/FiringConfiguration/WeaponLocation.tscn" type="PackedScene" id=1]


[node name="Straight1Configuration" type="Node2D"]

[node name="WeaponLocation" parent="." instance=ExtResource( 1 )]
position = Vector2( 0, -16 )
