[gd_scene load_steps=4 format=2]

[ext_resource path="res://src/PlayerTapWeapon/Projectile/Basic/basic_projectile.gd" type="Script" id=2]
[ext_resource path="res://src/PlayerTapWeapon/Projectile/Basic/white_circle.svg" type="Texture" id=3]


[sub_resource type="CircleShape2D" id=1]
radius = 5.0

[node name="Projectile" type="KinematicBody2D"]
collision_layer = 4
collision_mask = 2
script = ExtResource( 2 )

[node name="CollisionShape2D" type="CollisionShape2D" parent="."]
shape = SubResource( 1 )
__meta__ = {
"_edit_group_": true
}

[node name="Sprite" type="Sprite" parent="."]
modulate = Color( 1.37647, 0.550031, 0.101961, 1 )
scale = Vector2( 0.5, 0.5 )
texture = ExtResource( 3 )

[node name="Timer" type="Timer" parent="."]
process_mode = 0
one_shot = true

[node name="Tween" type="Tween" parent="."]
[connection signal="timeout" from="Timer" to="." method="_on_Timer_timeout"]
