[gd_resource type="TileSet" load_steps=4 format=2]

[ext_resource path="res://img/0x72_DungeonTilesetII_v1.3/0x72_DungeonTilesetII_v1.3.png" type="Texture" id=1]

[sub_resource type="ConvexPolygonShape2D" id=1]
points = PoolVector2Array( 14.4618, 32.127, 11.1671, 36.3908, 4.77145, 36.7784, 1.42712, 32.5726, 3.22099, 29.2199, 12.5237, 29.0261 )

[sub_resource type="ConvexPolygonShape2D" id=2]
points = PoolVector2Array( 4.36211, 29.9377, 11.6794, 30.0051, 14.9353, 32.3307, 11.6794, 36.0518, 4.93492, 36.0518, 2.20869, 32.6295 )

[resource]
0/name = "0x72_DungeonTilesetII_v1.3.png 0"
0/texture = ExtResource( 1 )
0/tex_offset = Vector2( 0, 0 )
0/modulate = Color( 1, 1, 1, 1 )
0/region = Rect2( 80, 80, 16, 48 )
0/tile_mode = 0
0/occluder_offset = Vector2( 0, 0 )
0/navigation_offset = Vector2( 0, 0 )
0/shape_offset = Vector2( 0, 0 )
0/shape_transform = Transform2D( 1, 0, 0, 1, 0, 0 )
0/shape = SubResource( 1 )
0/shape_one_way = false
0/shape_one_way_margin = 1.0
0/shapes = [ {
"autotile_coord": Vector2( 0, 0 ),
"one_way": false,
"one_way_margin": 1.0,
"shape": SubResource( 1 ),
"shape_transform": Transform2D( 1, 0, 0, 1, 0, 0 )
} ]
0/z_index = 0
1/name = "0x72_DungeonTilesetII_v1.3.png 1"
1/texture = ExtResource( 1 )
1/tex_offset = Vector2( 0, 0 )
1/modulate = Color( 1, 1, 1, 1 )
1/region = Rect2( 96, 80, 16, 48 )
1/tile_mode = 0
1/occluder_offset = Vector2( 0, 0 )
1/navigation_offset = Vector2( 0, 0 )
1/shape_offset = Vector2( 0, 0 )
1/shape_transform = Transform2D( 1, 0, 0, 1, 0, 0 )
1/shape = SubResource( 2 )
1/shape_one_way = false
1/shape_one_way_margin = 1.0
1/shapes = [ {
"autotile_coord": Vector2( 0, 0 ),
"one_way": false,
"one_way_margin": 1.0,
"shape": SubResource( 2 ),
"shape_transform": Transform2D( 1, 0, 0, 1, 0, 0 )
} ]
1/z_index = 0
3/name = "0x72_DungeonTilesetII_v1.3.png 3"
3/texture = ExtResource( 1 )
3/tex_offset = Vector2( 0, 0 )
3/modulate = Color( 1, 1, 1, 1 )
3/region = Rect2( 16, 0, 48, 32 )
3/tile_mode = 1
3/autotile/bitmask_mode = 1
3/autotile/bitmask_flags = [ Vector2( 0, 0 ), 448, Vector2( 0, 1 ), 292, Vector2( 1, 0 ), 448, Vector2( 1, 1 ), 511, Vector2( 2, 0 ), 448, Vector2( 2, 1 ), 73 ]
3/autotile/icon_coordinate = Vector2( 0, 0 )
3/autotile/tile_size = Vector2( 16, 16 )
3/autotile/spacing = 0
3/autotile/occluder_map = [  ]
3/autotile/navpoly_map = [  ]
3/autotile/priority_map = [  ]
3/autotile/z_index_map = [  ]
3/occluder_offset = Vector2( 0, 0 )
3/navigation_offset = Vector2( 0, 0 )
3/shape_offset = Vector2( 0, 0 )
3/shape_transform = Transform2D( 1, 0, 0, 1, 0, 0 )
3/shape_one_way = false
3/shape_one_way_margin = 0.0
3/shapes = [  ]
3/z_index = 0
4/name = "0x72_DungeonTilesetII_v1.3.png 4"
4/texture = ExtResource( 1 )
4/tex_offset = Vector2( 0, 0 )
4/modulate = Color( 1, 1, 1, 1 )
4/region = Rect2( 32, 112, 32, 64 )
4/tile_mode = 1
4/autotile/bitmask_mode = 1
4/autotile/bitmask_flags = [ Vector2( 0, 0 ), 448, Vector2( 0, 1 ), 79, Vector2( 0, 2 ), 73, Vector2( 0, 3 ), 505, Vector2( 1, 0 ), 448, Vector2( 1, 1 ), 295, Vector2( 1, 2 ), 292, Vector2( 1, 3 ), 508 ]
4/autotile/icon_coordinate = Vector2( 0, 1 )
4/autotile/tile_size = Vector2( 16, 16 )
4/autotile/spacing = 0
4/autotile/occluder_map = [  ]
4/autotile/navpoly_map = [  ]
4/autotile/priority_map = [  ]
4/autotile/z_index_map = [  ]
4/occluder_offset = Vector2( 0, 0 )
4/navigation_offset = Vector2( 0, 0 )
4/shape_offset = Vector2( 0, 0 )
4/shape_transform = Transform2D( 1, 0, 0, 1, 0, 0 )
4/shape_one_way = false
4/shape_one_way_margin = 0.0
4/shapes = [  ]
4/z_index = 0
5/name = "0x72_DungeonTilesetII_v1.3.png 5"
5/texture = ExtResource( 1 )
5/tex_offset = Vector2( 0, 0 )
5/modulate = Color( 1, 1, 1, 1 )
5/region = Rect2( 64, 128, 32, 32 )
5/tile_mode = 1
5/autotile/bitmask_mode = 1
5/autotile/bitmask_flags = [ Vector2( 0, 0 ), 484, Vector2( 0, 1 ), 319, Vector2( 1, 0 ), 457, Vector2( 1, 1 ), 127 ]
5/autotile/icon_coordinate = Vector2( 0, 0 )
5/autotile/tile_size = Vector2( 16, 16 )
5/autotile/spacing = 0
5/autotile/occluder_map = [  ]
5/autotile/navpoly_map = [  ]
5/autotile/priority_map = [  ]
5/autotile/z_index_map = [  ]
5/occluder_offset = Vector2( 0, 0 )
5/navigation_offset = Vector2( 0, 0 )
5/shape_offset = Vector2( 0, 0 )
5/shape_transform = Transform2D( 1, 0, 0, 1, 0, 0 )
5/shape_one_way = false
5/shape_one_way_margin = 0.0
5/shapes = [  ]
5/z_index = 0
6/name = "0x72_DungeonTilesetII_v1.3.png 6"
6/texture = ExtResource( 1 )
6/tex_offset = Vector2( 0, 0 )
6/modulate = Color( 1, 1, 1, 1 )
6/region = Rect2( 0, 112, 32, 48 )
6/tile_mode = 1
6/autotile/bitmask_mode = 1
6/autotile/bitmask_flags = [ Vector2( 0, 0 ), 256, Vector2( 0, 1 ), 292, Vector2( 0, 2 ), 292, Vector2( 1, 0 ), 64, Vector2( 1, 1 ), 73, Vector2( 1, 2 ), 73 ]
6/autotile/icon_coordinate = Vector2( 0, 1 )
6/autotile/tile_size = Vector2( 16, 16 )
6/autotile/spacing = 0
6/autotile/occluder_map = [  ]
6/autotile/navpoly_map = [  ]
6/autotile/priority_map = [  ]
6/autotile/z_index_map = [  ]
6/occluder_offset = Vector2( 0, 0 )
6/navigation_offset = Vector2( 0, 0 )
6/shape_offset = Vector2( 0, 0 )
6/shape_transform = Transform2D( 1, 0, 0, 1, 0, 0 )
6/shape_one_way = false
6/shape_one_way_margin = 0.0
6/shapes = [  ]
6/z_index = 0
7/name = "0x72_DungeonTilesetII_v1.3.png 7"
7/texture = ExtResource( 1 )
7/tex_offset = Vector2( 0, 0 )
7/modulate = Color( 1, 1, 1, 1 )
7/region = Rect2( 64, 80, 16, 32 )
7/tile_mode = 0
7/occluder_offset = Vector2( 0, 0 )
7/navigation_offset = Vector2( 0, 0 )
7/shape_offset = Vector2( 0, 0 )
7/shape_transform = Transform2D( 1, 0, 0, 1, 0, 0 )
7/shape_one_way = false
7/shape_one_way_margin = 0.0
7/shapes = [  ]
7/z_index = 0
8/name = "0x72_DungeonTilesetII_v1.3.png 8"
8/texture = ExtResource( 1 )
8/tex_offset = Vector2( 0, 0 )
8/modulate = Color( 1, 1, 1, 1 )
8/region = Rect2( 64, 0, 48, 80 )
8/tile_mode = 1
8/autotile/bitmask_mode = 1
8/autotile/bitmask_flags = [ Vector2( 0, 0 ), 128, Vector2( 0, 1 ), 146, Vector2( 0, 2 ), 2, Vector2( 0, 3 ), 146, Vector2( 0, 4 ), 18, Vector2( 1, 0 ), 128, Vector2( 1, 1 ), 146, Vector2( 1, 2 ), 2, Vector2( 1, 3 ), 146, Vector2( 1, 4 ), 18, Vector2( 2, 0 ), 128, Vector2( 2, 1 ), 146, Vector2( 2, 2 ), 2, Vector2( 2, 3 ), 146, Vector2( 2, 4 ), 18 ]
8/autotile/icon_coordinate = Vector2( 1, 1 )
8/autotile/tile_size = Vector2( 16, 16 )
8/autotile/spacing = 0
8/autotile/occluder_map = [  ]
8/autotile/navpoly_map = [  ]
8/autotile/priority_map = [  ]
8/autotile/z_index_map = [  ]
8/occluder_offset = Vector2( 0, 0 )
8/navigation_offset = Vector2( 0, 0 )
8/shape_offset = Vector2( 0, 0 )
8/shape_transform = Transform2D( 1, 0, 0, 1, 0, 0 )
8/shape_one_way = false
8/shape_one_way_margin = 0.0
8/shapes = [  ]
8/z_index = 0
9/name = "0x72_DungeonTilesetII_v1.3.png 9"
9/texture = ExtResource( 1 )
9/tex_offset = Vector2( 0, 0 )
9/modulate = Color( 1, 1, 1, 1 )
9/region = Rect2( 80, 176, 16, 16 )
9/tile_mode = 0
9/occluder_offset = Vector2( 0, 0 )
9/navigation_offset = Vector2( 0, 0 )
9/shape_offset = Vector2( 0, 0 )
9/shape_transform = Transform2D( 1, 0, 0, 1, 0, 0 )
9/shape_one_way = false
9/shape_one_way_margin = 0.0
9/shapes = [  ]
9/z_index = 0
11/name = "0x72_DungeonTilesetII_v1.3.png 11"
11/texture = ExtResource( 1 )
11/tex_offset = Vector2( 0, 0 )
11/modulate = Color( 1, 1, 1, 1 )
11/region = Rect2( 96, 144, 16, 16 )
11/tile_mode = 0
11/occluder_offset = Vector2( 0, 0 )
11/navigation_offset = Vector2( 0, 0 )
11/shape_offset = Vector2( 0, 0 )
11/shape_transform = Transform2D( 1, 0, 0, 1, 0, 0 )
11/shape_one_way = false
11/shape_one_way_margin = 0.0
11/shapes = [  ]
11/z_index = 0
12/name = "0x72_DungeonTilesetII_v1.3.png 12"
12/texture = ExtResource( 1 )
12/tex_offset = Vector2( 0, 0 )
12/modulate = Color( 1, 1, 1, 1 )
12/region = Rect2( 288, 320, 16, 16 )
12/tile_mode = 0
12/occluder_offset = Vector2( 0, 0 )
12/navigation_offset = Vector2( 0, 0 )
12/shape_offset = Vector2( 0, 0 )
12/shape_transform = Transform2D( 1, 0, 0, 1, 0, 0 )
12/shape_one_way = false
12/shape_one_way_margin = 0.0
12/shapes = [  ]
12/z_index = 0
13/name = "0x72_DungeonTilesetII_v1.3.png 13"
13/texture = ExtResource( 1 )
13/tex_offset = Vector2( 0, 0 )
13/modulate = Color( 1, 1, 1, 1 )
13/region = Rect2( 32, 48, 16, 16 )
13/tile_mode = 1
13/autotile/bitmask_mode = 1
13/autotile/bitmask_flags = [ Vector2( 0, 0 ), 256, Vector2( 0, 1 ), 292, Vector2( 0, 2 ), 4, Vector2( 1, 0 ), 448, Vector2( 1, 1 ), 511, Vector2( 1, 2 ), 7, Vector2( 2, 0 ), 64, Vector2( 2, 1 ), 73 ]
13/autotile/icon_coordinate = Vector2( 0, 0 )
13/autotile/tile_size = Vector2( 16, 16 )
13/autotile/spacing = 0
13/autotile/occluder_map = [  ]
13/autotile/navpoly_map = [  ]
13/autotile/priority_map = [  ]
13/autotile/z_index_map = [  ]
13/occluder_offset = Vector2( 0, 0 )
13/navigation_offset = Vector2( 0, 0 )
13/shape_offset = Vector2( 0, 0 )
13/shape_transform = Transform2D( 1, 0, 0, 1, 0, 0 )
13/shape_one_way = false
13/shape_one_way_margin = 0.0
13/shapes = [  ]
13/z_index = 0
14/name = "0x72_DungeonTilesetII_v1.3.png 14"
14/texture = ExtResource( 1 )
14/tex_offset = Vector2( 0, 0 )
14/modulate = Color( 1, 1, 1, 1 )
14/region = Rect2( 16, 64, 48, 32 )
14/tile_mode = 2
14/autotile/icon_coordinate = Vector2( 2, 0 )
14/autotile/tile_size = Vector2( 16, 16 )
14/autotile/spacing = 0
14/autotile/occluder_map = [  ]
14/autotile/navpoly_map = [  ]
14/autotile/priority_map = [  ]
14/autotile/z_index_map = [  ]
14/occluder_offset = Vector2( 0, 0 )
14/navigation_offset = Vector2( 0, 0 )
14/shape_offset = Vector2( 0, 0 )
14/shape_transform = Transform2D( 1, 0, 0, 1, 0, 0 )
14/shape_one_way = false
14/shape_one_way_margin = 0.0
14/shapes = [  ]
14/z_index = 0
15/name = "0x72_DungeonTilesetII_v1.3.png 15"
15/texture = ExtResource( 1 )
15/tex_offset = Vector2( 0, 0 )
15/modulate = Color( 1, 1, 1, 1 )
15/region = Rect2( 16, 64, 32, 48 )
15/tile_mode = 2
15/autotile/icon_coordinate = Vector2( 0, 2 )
15/autotile/tile_size = Vector2( 16, 16 )
15/autotile/spacing = 0
15/autotile/occluder_map = [  ]
15/autotile/navpoly_map = [  ]
15/autotile/priority_map = [  ]
15/autotile/z_index_map = [  ]
15/occluder_offset = Vector2( 0, 0 )
15/navigation_offset = Vector2( 0, 0 )
15/shape_offset = Vector2( 0, 0 )
15/shape_transform = Transform2D( 1, 0, 0, 1, 0, 0 )
15/shape_one_way = false
15/shape_one_way_margin = 0.0
15/shapes = [  ]
15/z_index = 0
16/name = "0x72_DungeonTilesetII_v1.3.png 16"
16/texture = ExtResource( 1 )
16/tex_offset = Vector2( 0, 0 )
16/modulate = Color( 1, 1, 1, 1 )
16/region = Rect2( 48, 96, 16, 16 )
16/tile_mode = 0
16/occluder_offset = Vector2( 0, 0 )
16/navigation_offset = Vector2( 0, 0 )
16/shape_offset = Vector2( 0, 0 )
16/shape_transform = Transform2D( 1, 0, 0, 1, 0, 0 )
16/shape_one_way = false
16/shape_one_way_margin = 0.0
16/shapes = [  ]
16/z_index = 0
17/name = "0x72_DungeonTilesetII_v1.3.png 17"
17/texture = ExtResource( 1 )
17/tex_offset = Vector2( 0, 0 )
17/modulate = Color( 1, 1, 1, 1 )
17/region = Rect2( 32, 16, 16, 16 )
17/tile_mode = 2
17/autotile/icon_coordinate = Vector2( 0, 0 )
17/autotile/tile_size = Vector2( 16, 16 )
17/autotile/spacing = 0
17/autotile/occluder_map = [  ]
17/autotile/navpoly_map = [  ]
17/autotile/priority_map = [  ]
17/autotile/z_index_map = [  ]
17/occluder_offset = Vector2( 0, 0 )
17/navigation_offset = Vector2( 0, 0 )
17/shape_offset = Vector2( 0, 0 )
17/shape_transform = Transform2D( 1, 0, 0, 1, 0, 0 )
17/shape_one_way = false
17/shape_one_way_margin = 0.0
17/shapes = [  ]
17/z_index = 0
18/name = "0x72_DungeonTilesetII_v1.3.png 18"
18/texture = ExtResource( 1 )
18/tex_offset = Vector2( 0, 0 )
18/modulate = Color( 1, 1, 1, 1 )
18/region = Rect2( 16, 32, 16, 16 )
18/tile_mode = 2
18/autotile/icon_coordinate = Vector2( 0, 0 )
18/autotile/tile_size = Vector2( 16, 16 )
18/autotile/spacing = 0
18/autotile/occluder_map = [  ]
18/autotile/navpoly_map = [  ]
18/autotile/priority_map = [  ]
18/autotile/z_index_map = [  ]
18/occluder_offset = Vector2( 0, 0 )
18/navigation_offset = Vector2( 0, 0 )
18/shape_offset = Vector2( 0, 0 )
18/shape_transform = Transform2D( 1, 0, 0, 1, 0, 0 )
18/shape_one_way = false
18/shape_one_way_margin = 0.0
18/shapes = [  ]
18/z_index = 0
19/name = "0x72_DungeonTilesetII_v1.3.png 19"
19/texture = ExtResource( 1 )
19/tex_offset = Vector2( 0, 0 )
19/modulate = Color( 1, 1, 1, 1 )
19/region = Rect2( 16, 16, 16, 16 )
19/tile_mode = 0
19/occluder_offset = Vector2( 0, 0 )
19/navigation_offset = Vector2( 0, 0 )
19/shape_offset = Vector2( 0, 0 )
19/shape_transform = Transform2D( 1, 0, 0, 1, 0, 0 )
19/shape_one_way = false
19/shape_one_way_margin = 0.0
19/shapes = [  ]
19/z_index = 0
20/name = "0x72_DungeonTilesetII_v1.3.png 20"
20/texture = ExtResource( 1 )
20/tex_offset = Vector2( 0, 0 )
20/modulate = Color( 1, 1, 1, 1 )
20/region = Rect2( 32, 16, 16, 16 )
20/tile_mode = 0
20/occluder_offset = Vector2( 0, 0 )
20/navigation_offset = Vector2( 0, 0 )
20/shape_offset = Vector2( 0, 0 )
20/shape_transform = Transform2D( 1, 0, 0, 1, 0, 0 )
20/shape_one_way = false
20/shape_one_way_margin = 0.0
20/shapes = [  ]
20/z_index = 0
21/name = "0x72_DungeonTilesetII_v1.3.png 21"
21/texture = ExtResource( 1 )
21/tex_offset = Vector2( 0, 0 )
21/modulate = Color( 1, 1, 1, 1 )
21/region = Rect2( 48, 16, 16, 16 )
21/tile_mode = 0
21/occluder_offset = Vector2( 0, 0 )
21/navigation_offset = Vector2( 0, 0 )
21/shape_offset = Vector2( 0, 0 )
21/shape_transform = Transform2D( 1, 0, 0, 1, 0, 0 )
21/shape_one_way = false
21/shape_one_way_margin = 0.0
21/shapes = [  ]
21/z_index = 0
22/name = "0x72_DungeonTilesetII_v1.3.png 22"
22/texture = ExtResource( 1 )
22/tex_offset = Vector2( 0, 0 )
22/modulate = Color( 1, 1, 1, 1 )
22/region = Rect2( 16, 32, 16, 16 )
22/tile_mode = 0
22/occluder_offset = Vector2( 0, 0 )
22/navigation_offset = Vector2( 0, 0 )
22/shape_offset = Vector2( 0, 0 )
22/shape_transform = Transform2D( 1, 0, 0, 1, 0, 0 )
22/shape_one_way = false
22/shape_one_way_margin = 0.0
22/shapes = [  ]
22/z_index = 0
23/name = "0x72_DungeonTilesetII_v1.3.png 23"
23/texture = ExtResource( 1 )
23/tex_offset = Vector2( 0, 0 )
23/modulate = Color( 1, 1, 1, 1 )
23/region = Rect2( 32, 32, 16, 16 )
23/tile_mode = 0
23/occluder_offset = Vector2( 0, 0 )
23/navigation_offset = Vector2( 0, 0 )
23/shape_offset = Vector2( 0, 0 )
23/shape_transform = Transform2D( 1, 0, 0, 1, 0, 0 )
23/shape_one_way = false
23/shape_one_way_margin = 0.0
23/shapes = [  ]
23/z_index = 0
24/name = "0x72_DungeonTilesetII_v1.3.png 24"
24/texture = ExtResource( 1 )
24/tex_offset = Vector2( 0, 0 )
24/modulate = Color( 1, 1, 1, 1 )
24/region = Rect2( 48, 32, 16, 16 )
24/tile_mode = 0
24/occluder_offset = Vector2( 0, 0 )
24/navigation_offset = Vector2( 0, 0 )
24/shape_offset = Vector2( 0, 0 )
24/shape_transform = Transform2D( 1, 0, 0, 1, 0, 0 )
24/shape_one_way = false
24/shape_one_way_margin = 0.0
24/shapes = [  ]
24/z_index = 0
25/name = "0x72_DungeonTilesetII_v1.3.png 25"
25/texture = ExtResource( 1 )
25/tex_offset = Vector2( 0, 0 )
25/modulate = Color( 1, 1, 1, 1 )
25/region = Rect2( 16, 48, 16, 16 )
25/tile_mode = 0
25/occluder_offset = Vector2( 0, 0 )
25/navigation_offset = Vector2( 0, 0 )
25/shape_offset = Vector2( 0, 0 )
25/shape_transform = Transform2D( 1, 0, 0, 1, 0, 0 )
25/shape_one_way = false
25/shape_one_way_margin = 0.0
25/shapes = [  ]
25/z_index = 0
