[gd_scene load_steps=4 format=2]

[ext_resource path="res://levels/Level2.tres" type="TileSet" id=1]

[sub_resource type="RectangleShape2D" id=1]
extents = Vector2( 560, 10 )

[sub_resource type="RectangleShape2D" id=2]
extents = Vector2( 16, 304 )

[node name="Level2" type="Node2D"]
__meta__ = {
"_edit_lock_": true
}

[node name="Floor" type="TileMap" parent="."]
tile_set = ExtResource( 1 )
cell_size = Vector2( 16, 16 )
cell_custom_transform = Transform2D( 36, 0, 0, 36, 0, 0 )
format = 1
tile_data = PoolIntArray( 131072, 14, 0, 131073, 14, 65536, 131074, 14, 65538, 131075, 14, 0, 131076, 14, 65537, 131077, 14, 1, 131078, 14, 2, 131079, 14, 1, 131080, 14, 65536, 131081, 14, 2, 131082, 14, 65538, 131083, 14, 1, 131084, 14, 1, 131085, 14, 2, 131086, 14, 1, 131087, 14, 0, 131088, 14, 65536, 131089, 14, 1, 131090, 14, 2, 131091, 14, 1, 131092, 14, 1, 131093, 14, 65537, 131094, 14, 0, 131095, 14, 1, 131096, 14, 65537, 131097, 14, 1, 131098, 14, 0, 131099, 14, 65538, 131100, 14, 65538, 131101, 14, 65538, 131102, 14, 65538, 131103, 14, 1, 131104, 14, 65537, 131105, 14, 1, 131106, 14, 65537, 131107, 14, 1, 131108, 14, 65536, 131109, 14, 65536, 131110, 14, 1, 131111, 14, 65538, 131112, 14, 2, 131113, 14, 1, 131114, 14, 65538, 131115, 14, 65536, 131116, 14, 0, 131117, 14, 1, 131118, 14, 1, 131119, 14, 65538, 131120, 14, 2, 131121, 14, 65538, 131122, 14, 65537, 131123, 14, 65536, 131124, 14, 65537, 131125, 14, 1, 131126, 14, 65536, 131127, 14, 1, 131128, 14, 65536, 131129, 14, 0, 131130, 14, 65538, 131131, 14, 2, 131132, 14, 65537, 131133, 14, 0, 131134, 14, 0, 131135, 14, 1, 131136, 14, 65537, 131137, 14, 65538, 131138, 14, 2, 131139, 14, 65536, 131140, 14, 2, 131141, 14, 1, 196608, 14, 65536, 196609, 14, 2, 196610, 14, 65538, 196611, 14, 1, 196612, 14, 2, 196613, 14, 2, 196614, 14, 65536, 196615, 14, 1, 196616, 14, 0, 196617, 14, 65538, 196618, 14, 0, 196619, 14, 2, 196620, 14, 1, 196621, 14, 65537, 196622, 14, 65538, 196623, 14, 65538, 196624, 14, 0, 196625, 14, 65536, 196626, 14, 65538, 196627, 14, 2, 196628, 14, 2, 196629, 14, 0, 196630, 14, 65538, 196631, 14, 1, 196632, 14, 65536, 196633, 14, 0, 196634, 14, 65536, 196635, 14, 65536, 196636, 14, 2, 196637, 14, 65536, 196638, 14, 0, 196639, 14, 0, 196640, 14, 2, 196641, 14, 0, 196642, 14, 0, 196643, 14, 65538, 196644, 14, 2, 196645, 14, 2, 196646, 14, 0, 196647, 14, 65538, 196648, 14, 65536, 196649, 14, 1, 196650, 14, 65537, 196651, 14, 0, 196652, 14, 0, 196653, 14, 65537, 196654, 14, 2, 196655, 14, 65538, 196656, 14, 65536, 196657, 14, 65537, 196658, 14, 65537, 196659, 14, 1, 196660, 14, 65537, 196661, 14, 65537, 196662, 14, 1, 196663, 14, 2, 196664, 14, 65538, 196665, 14, 1, 196666, 14, 65536, 196667, 14, 0, 196668, 14, 0, 196669, 14, 65538, 196670, 14, 0, 196671, 14, 65538, 196672, 14, 65538, 196673, 14, 0, 196674, 14, 65538, 196675, 14, 65536, 196676, 14, 0, 196677, 14, 2, 262144, 14, 65538, 262145, 14, 65537, 262146, 14, 65536, 262147, 14, 1, 262148, 14, 2, 262149, 14, 65537, 262150, 14, 65538, 262151, 14, 65538, 262152, 14, 65537, 262153, 14, 2, 262154, 14, 65536, 262155, 14, 1, 262156, 14, 0, 262157, 14, 65537, 262158, 14, 65538, 262159, 14, 65537, 262160, 14, 0, 262161, 14, 0, 262162, 14, 65537, 262163, 14, 65536, 262164, 14, 2, 262165, 14, 0, 262166, 14, 65537, 262167, 14, 0, 262168, 14, 0, 262169, 14, 65538, 262170, 14, 65538, 262171, 14, 2, 262172, 14, 2, 262173, 14, 0, 262174, 14, 65537, 262175, 14, 65538, 262176, 14, 2, 262177, 14, 65537, 262178, 14, 2, 262179, 14, 0, 262180, 14, 65538, 262181, 14, 2, 262182, 14, 0, 262183, 14, 65536, 262184, 14, 1, 262185, 14, 65536, 262186, 14, 1, 262187, 14, 0, 262188, 14, 0, 262189, 14, 65538, 262190, 14, 0, 262191, 14, 65536, 262192, 14, 1, 262193, 14, 0, 262194, 14, 2, 262195, 14, 65538, 262196, 14, 65537, 262197, 14, 65537, 262198, 14, 65538, 262199, 14, 65538, 262200, 14, 65538, 262201, 14, 2, 262202, 14, 65536, 262203, 14, 65538, 262204, 14, 0, 262205, 14, 65536, 262206, 14, 2, 262207, 14, 0, 262208, 14, 65537, 262209, 14, 65536, 262210, 14, 2, 262211, 14, 1, 262212, 14, 65536, 262213, 14, 2, 327680, 14, 65538, 327681, 14, 2, 327682, 14, 65536, 327683, 14, 0, 327684, 14, 0, 327685, 15, 131073, 327686, 15, 65536, 327687, 14, 0, 327688, 14, 0, 327689, 14, 0, 327690, 15, 65536, 327691, 15, 0, 327692, 15, 1, 327693, 15, 65537, 327694, 15, 131073, 327695, 15, 0, 327696, 15, 1, 327697, 15, 1, 327698, 15, 65537, 327699, 15, 1, 327700, 15, 0, 327701, 15, 65536, 327702, 15, 131072, 327703, 15, 65536, 327704, 14, 65537, 327705, 14, 1, 327706, 14, 0, 327707, 14, 65537, 327708, 14, 2, 327709, 14, 0, 327710, 14, 2, 327711, 14, 2, 327712, 14, 1, 327713, 14, 65536, 327714, 14, 2, 327715, 14, 1, 327716, 14, 65536, 327717, 14, 65537, 327718, 14, 65536, 327719, 14, 1, 327720, 14, 0, 327721, 14, 2, 327722, 14, 65537, 327723, 14, 65536, 327724, 14, 0, 327725, 14, 1, 327726, 14, 65538, 327727, 14, 1, 327728, 14, 2, 327729, 14, 0, 327730, 14, 65537, 327731, 14, 65538, 327732, 14, 65537, 327733, 14, 65536, 327734, 14, 65538, 327735, 14, 65536, 327736, 14, 1, 327737, 14, 2, 327738, 14, 65536, 327739, 14, 65538, 327740, 14, 0, 327741, 14, 65536, 327742, 14, 65538, 327743, 14, 0, 327744, 14, 0, 327745, 14, 1, 327746, 14, 65537, 327747, 14, 2, 327748, 14, 65538, 327749, 14, 65537, 393216, 14, 65538, 393217, 14, 1, 393218, 14, 1, 393219, 14, 65537, 393220, 15, 0, 393221, 14, 0, 393222, 14, 0, 393223, 15, 0, 393224, 15, 65536, 393225, 14, 0, 393226, 14, 0, 393227, 14, 0, 393228, 15, 65537, 393229, 15, 1, 393230, 15, 131073, 393231, 15, 0, 393232, 15, 65536, 393233, 15, 131073, 393234, 15, 65536, 393235, 15, 65537, 393236, 15, 0, 393237, 15, 65536, 393238, 15, 1, 393239, 15, 131072, 393240, 14, 2, 393241, 14, 2, 393242, 14, 2, 393243, 14, 0, 393244, 14, 65536, 393245, 14, 65536, 393246, 14, 1, 393247, 14, 2, 393248, 14, 1, 393249, 14, 65537, 393250, 14, 0, 393251, 14, 1, 393252, 14, 65538, 393253, 14, 1, 393254, 14, 65538, 393255, 14, 65537, 393256, 14, 65536, 393257, 14, 65536, 393258, 14, 65538, 393259, 14, 2, 393260, 14, 65537, 393261, 14, 65536, 393262, 14, 65537, 393263, 14, 65538, 393264, 14, 65536, 393265, 14, 2, 393266, 14, 65538, 393267, 14, 65537, 393268, 14, 65538, 393269, 14, 2, 393270, 14, 2, 393271, 14, 65538, 393272, 14, 65536, 393273, 14, 65536, 393274, 14, 0, 393275, 14, 0, 393276, 14, 2, 393277, 14, 0, 393278, 14, 0, 393279, 14, 65536, 393280, 14, 65537, 393281, 14, 65538, 393282, 14, 65538, 393283, 14, 2, 393284, 14, 65537, 393285, 14, 2, 458752, 14, 65537, 458753, 14, 65536, 458754, 14, 65536, 458755, 14, 65536, 458756, 15, 131072, 458757, 14, 0, 458758, 14, 65537, 458759, 14, 0, 458760, 14, 0, 458761, 15, 1, 458762, 15, 131073, 458763, 14, 0, 458764, 14, 0, 458765, 14, 0, 458766, 15, 0, 458767, 15, 131073, 458768, 15, 65536, 458769, 15, 131073, 458770, 15, 131072, 458771, 15, 65537, 458772, 15, 0, 458773, 15, 131072, 458774, 15, 0, 458775, 15, 65536, 458776, 14, 65536, 458777, 14, 0, 458778, 14, 2, 458779, 14, 2, 458780, 14, 65537, 458781, 14, 1, 458782, 14, 65537, 458783, 14, 2, 458784, 14, 65538, 458785, 14, 0, 458786, 14, 2, 458787, 14, 2, 458788, 14, 65538, 458789, 14, 65538, 458790, 14, 65538, 458791, 14, 1, 458792, 14, 1, 458793, 14, 2, 458794, 14, 65538, 458795, 14, 65536, 458796, 14, 2, 458797, 14, 65538, 458798, 14, 2, 458799, 14, 1, 458800, 14, 2, 458801, 14, 65538, 458802, 14, 65538, 458803, 14, 65536, 458804, 14, 0, 458805, 14, 2, 458806, 14, 0, 458807, 14, 65536, 458808, 14, 0, 458809, 14, 0, 458810, 14, 1, 458811, 14, 0, 458812, 14, 0, 458813, 14, 0, 458814, 14, 65537, 458815, 14, 0, 458816, 14, 65538, 458817, 14, 0, 458818, 14, 0, 458819, 14, 65537, 458820, 14, 65537, 458821, 14, 65537, 524288, 14, 0, 524289, 14, 1, 524290, 14, 0, 524291, 14, 2, 524292, 15, 65536, 524293, 15, 1, 524294, 15, 0, 524295, 15, 131073, 524296, 15, 65536, 524297, 14, 0, 524298, 14, 0, 524299, 14, 0, 524300, 14, 1, 524301, 14, 0, 524302, 14, 0, 524303, 14, 0, 524304, 15, 131072, 524305, 15, 0, 524306, 15, 65536, 524307, 15, 0, 524308, 15, 0, 524309, 15, 0, 524310, 15, 131073, 524311, 15, 131072, 524312, 14, 65536, 524313, 14, 65536, 524314, 14, 2, 524315, 14, 0, 524316, 14, 65536, 524317, 14, 65536, 524318, 14, 65537, 524319, 14, 65536, 524320, 14, 0, 524321, 14, 65537, 524322, 14, 65538, 524323, 14, 0, 524324, 14, 0, 524325, 14, 0, 524326, 14, 65538, 524327, 14, 0, 524328, 14, 65537, 524329, 14, 65536, 524330, 14, 0, 524331, 14, 2, 524332, 14, 1, 524333, 14, 1, 524334, 14, 2, 524335, 14, 65536, 524336, 14, 65538, 524337, 14, 65538, 524338, 14, 0, 524339, 14, 1, 524340, 14, 65536, 524341, 14, 65537, 524342, 14, 0, 524343, 14, 0, 524344, 14, 65537, 524345, 14, 0, 524346, 14, 0, 524347, 14, 65537, 524348, 14, 1, 524349, 14, 65537, 524350, 14, 1, 524351, 14, 0, 524352, 14, 0, 524353, 14, 1, 524354, 14, 65536, 524355, 14, 2, 524356, 14, 0, 524357, 14, 2, 589824, 14, 0, 589825, 14, 1, 589826, 14, 2, 589827, 14, 0, 589828, 15, 1, 589829, 15, 65536, 589830, 14, 65536, 589831, 14, 65538, 589832, 15, 1, 589833, 15, 0, 589834, 15, 131073, 589835, 15, 131072, 589836, 14, 0, 589837, 14, 0, 589838, 15, 65537, 589839, 14, 0, 589840, 14, 0, 589841, 14, 0, 589842, 14, 65537, 589843, 14, 2, 589844, 14, 65536, 589845, 14, 1, 589846, 14, 2, 589847, 15, 65536, 589848, 14, 1, 589849, 14, 65537, 589850, 14, 65537, 589851, 14, 65536, 589852, 14, 65538, 589853, 14, 2, 589854, 14, 0, 589855, 14, 65537, 589856, 14, 1, 589857, 14, 65536, 589858, 14, 65537, 589859, 14, 65536, 589860, 14, 65537, 589861, 14, 65536, 589862, 14, 65538, 589863, 14, 0, 589864, 14, 1, 589865, 14, 65538, 589866, 14, 65538, 589867, 14, 65537, 589868, 14, 1, 589869, 14, 1, 589870, 14, 1, 589871, 14, 2, 589872, 14, 65537, 589873, 14, 65536, 589874, 14, 2, 589875, 14, 2, 589876, 14, 65536, 589877, 14, 0, 589878, 14, 1, 589879, 14, 0, 589880, 14, 0, 589881, 15, 0, 589882, 15, 131072, 589883, 14, 0, 589884, 14, 0, 589885, 14, 0, 589886, 14, 0, 589887, 14, 0, 589888, 14, 0, 589889, 14, 65537, 589890, 14, 65537, 589891, 14, 0, 589892, 14, 1, 589893, 14, 65538, 655360, 14, 65537, 655361, 14, 2, 655362, 14, 65537, 655363, 14, 65536, 655364, 15, 1, 655365, 15, 131072, 655366, 15, 131073, 655367, 15, 131072, 655368, 14, 65536, 655369, 14, 65538, 655370, 15, 131073, 655371, 15, 131072, 655372, 15, 65536, 655373, 15, 65536, 655374, 14, 0, 655375, 14, 0, 655376, 15, 131073, 655377, 14, 0, 655378, 14, 0, 655379, 14, 0, 655380, 15, 65537, 655381, 15, 65536, 655382, 15, 65536, 655383, 14, 65538, 655384, 14, 65538, 655385, 14, 65536, 655386, 14, 1, 655387, 14, 1, 655388, 14, 0, 655389, 15, 0, 655390, 15, 131072, 655391, 15, 1, 655392, 14, 1, 655393, 14, 65536, 655394, 14, 65537, 655395, 14, 2, 655396, 14, 0, 655397, 14, 1, 655398, 14, 65536, 655399, 14, 1, 655400, 14, 2, 655401, 14, 65538, 655402, 14, 1, 655403, 14, 0, 655404, 14, 65536, 655405, 14, 1, 655406, 14, 2, 655407, 14, 65536, 655408, 14, 0, 655409, 14, 0, 655410, 14, 65538, 655411, 14, 0, 655412, 14, 0, 655413, 14, 0, 655414, 14, 0, 655415, 14, 2, 655416, 15, 65537, 655417, 14, 0, 655418, 14, 0, 655419, 14, 0, 655420, 14, 0, 655421, 14, 0, 655422, 14, 0, 655423, 15, 1, 655424, 15, 1, 655425, 15, 0, 655426, 15, 65537, 655427, 15, 131072, 655428, 14, 1, 655429, 14, 1, 720896, 14, 65537, 720897, 14, 65537, 720898, 14, 65536, 720899, 14, 0, 720900, 14, 0, 720901, 14, 0, 720902, 15, 0, 720903, 14, 0, 720904, 14, 0, 720905, 14, 0, 720906, 14, 0, 720907, 14, 0, 720908, 15, 1, 720909, 15, 65536, 720910, 15, 131072, 720911, 15, 1, 720912, 14, 0, 720913, 14, 0, 720914, 14, 0, 720915, 14, 0, 720916, 14, 0, 720917, 14, 0, 720918, 15, 65536, 720919, 14, 0, 720920, 15, 131073, 720921, 15, 131073, 720922, 15, 1, 720923, 15, 131072, 720924, 15, 1, 720925, 14, 65538, 720926, 14, 65537, 720927, 14, 0, 720928, 14, 0, 720929, 14, 65538, 720930, 14, 65537, 720931, 14, 65536, 720932, 14, 1, 720933, 14, 1, 720934, 14, 65537, 720935, 14, 65537, 720936, 14, 1, 720937, 14, 0, 720938, 14, 65538, 720939, 14, 65537, 720940, 14, 65536, 720941, 14, 65538, 720942, 14, 65536, 720943, 14, 65538, 720944, 14, 65536, 720945, 14, 0, 720946, 14, 0, 720947, 14, 0, 720948, 14, 0, 720949, 14, 65537, 720950, 14, 0, 720951, 14, 0, 720952, 14, 0, 720953, 14, 0, 720954, 14, 0, 720955, 14, 0, 720956, 14, 0, 720957, 14, 0, 720958, 14, 0, 720959, 15, 65537, 720960, 15, 0, 720961, 15, 1, 720962, 15, 131072, 720963, 15, 0, 720964, 14, 0, 720965, 14, 1, 786432, 14, 1, 786433, 14, 65538, 786434, 14, 2, 786435, 14, 1, 786436, 15, 131072, 786437, 15, 1, 786438, 14, 0, 786439, 14, 0, 786440, 14, 0, 786441, 14, 0, 786442, 14, 0, 786443, 14, 0, 786444, 14, 0, 786445, 14, 0, 786446, 15, 65537, 786447, 15, 131072, 786448, 15, 1, 786449, 15, 131073, 786450, 15, 131072, 786451, 14, 0, 786452, 14, 0, 786453, 14, 0, 786454, 14, 0, 786455, 14, 0, 786456, 14, 65537, 786457, 14, 65538, 786458, 15, 0, 786459, 15, 65537, 786460, 15, 0, 786461, 15, 1, 786462, 15, 65537, 786463, 15, 65536, 786464, 14, 65537, 786465, 14, 65536, 786466, 14, 2, 786467, 14, 65538, 786468, 14, 65538, 786469, 14, 65536, 786470, 14, 1, 786471, 14, 2, 786472, 14, 65537, 786473, 14, 65537, 786474, 14, 0, 786475, 14, 1, 786476, 14, 2, 786477, 14, 65538, 786478, 14, 65538, 786479, 14, 65538, 786480, 14, 0, 786481, 14, 0, 786482, 14, 65537, 786483, 14, 2, 786484, 14, 0, 786485, 14, 0, 786486, 14, 0, 786487, 14, 0, 786488, 14, 0, 786489, 14, 0, 786490, 14, 0, 786491, 14, 0, 786492, 14, 0, 786493, 15, 65537, 786494, 15, 131072, 786495, 15, 65537, 786496, 15, 0, 786497, 15, 65536, 786498, 15, 1, 786499, 15, 1, 786500, 14, 2, 786501, 14, 65536, 851968, 14, 65538, 851969, 14, 65537, 851970, 14, 2, 851971, 14, 65536, 851972, 15, 131073, 851973, 14, 0, 851974, 14, 0, 851975, 14, 0, 851976, 15, 65536, 851977, 14, 0, 851978, 14, 0, 851979, 14, 0, 851980, 14, 0, 851981, 14, 0, 851982, 14, 0, 851983, 14, 0, 851984, 14, 0, 851985, 14, 0, 851986, 14, 65536, 851987, 14, 65538, 851988, 15, 65537, 851989, 14, 0, 851990, 14, 0, 851991, 14, 0, 851992, 14, 0, 851993, 14, 0, 851994, 14, 65538, 851995, 14, 2, 851996, 15, 131073, 851997, 15, 1, 851998, 15, 131072, 851999, 15, 1, 852000, 14, 1, 852001, 14, 65537, 852002, 14, 65538, 852003, 14, 65538, 852004, 14, 65537, 852005, 14, 65538, 852006, 14, 1, 852007, 14, 65538, 852008, 14, 65538, 852009, 14, 0, 852010, 14, 0, 852011, 14, 65537, 852012, 14, 0, 852013, 14, 1, 852014, 14, 0, 852015, 14, 0, 852016, 14, 65536, 852017, 14, 1, 852018, 14, 0, 852019, 14, 0, 852020, 14, 0, 852021, 14, 0, 852022, 14, 0, 852023, 14, 0, 852024, 14, 0, 852025, 14, 0, 852026, 15, 0, 852027, 15, 131072, 852028, 14, 0, 852029, 14, 0, 852030, 14, 0, 852031, 15, 0, 852032, 14, 0, 852033, 14, 0, 852034, 14, 0, 852035, 15, 131073, 852036, 14, 65537, 852037, 14, 0, 917504, 14, 65537, 917505, 14, 2, 917506, 14, 65538, 917507, 14, 65538, 917508, 14, 0, 917509, 15, 65536, 917510, 15, 1, 917511, 15, 0, 917512, 14, 0, 917513, 14, 0, 917514, 14, 0, 917515, 14, 0, 917516, 14, 0, 917517, 14, 0, 917518, 14, 0, 917519, 14, 0, 917520, 14, 0, 917521, 14, 0, 917522, 14, 0, 917523, 14, 0, 917524, 14, 0, 917525, 14, 0, 917526, 14, 2, 917527, 14, 1, 917528, 14, 0, 917529, 14, 0, 917530, 14, 0, 917531, 14, 0, 917532, 14, 0, 917533, 14, 65538, 917534, 14, 65536, 917535, 14, 65538, 917536, 14, 65537, 917537, 14, 2, 917538, 14, 1, 917539, 14, 65537, 917540, 14, 65538, 917541, 14, 1, 917542, 14, 0, 917543, 14, 65536, 917544, 14, 65536, 917545, 14, 1, 917546, 14, 65536, 917547, 14, 2, 917548, 14, 0, 917549, 14, 0, 917550, 14, 65537, 917551, 14, 0, 917552, 14, 0, 917553, 14, 0, 917554, 14, 0, 917555, 14, 0, 917556, 14, 0, 917557, 14, 0, 917558, 14, 65537, 917559, 14, 65538, 917560, 14, 0, 917561, 14, 0, 917562, 14, 0, 917563, 14, 0, 917564, 14, 0, 917565, 14, 0, 917566, 14, 0, 917567, 14, 0, 917568, 15, 65537, 917569, 14, 2, 917570, 14, 0, 917571, 15, 1, 917572, 14, 2, 917573, 14, 65538, 983040, 14, 1, 983041, 14, 2, 983042, 14, 65538, 983043, 14, 0, 983044, 14, 65537, 983045, 15, 131072, 983046, 15, 131072, 983047, 15, 131073, 983048, 15, 131073, 983049, 15, 0, 983050, 15, 131073, 983051, 15, 65537, 983052, 15, 131073, 983053, 14, 0, 983054, 14, 0, 983055, 14, 0, 983056, 14, 0, 983057, 14, 0, 983058, 14, 0, 983059, 14, 0, 983060, 14, 0, 983061, 14, 0, 983062, 14, 0, 983063, 14, 0, 983064, 14, 1, 983065, 14, 0, 983066, 14, 0, 983067, 14, 0, 983068, 14, 0, 983069, 14, 0, 983070, 14, 0, 983071, 14, 2, 983072, 14, 65537, 983073, 14, 65536, 983074, 14, 0, 983075, 14, 65536, 983076, 14, 2, 983077, 14, 65538, 983078, 14, 65538, 983079, 14, 65537, 983080, 14, 1, 983081, 14, 65538, 983082, 14, 0, 983083, 14, 0, 983084, 15, 0, 983085, 14, 0, 983086, 14, 0, 983087, 14, 0, 983088, 14, 0, 983089, 14, 0, 983090, 14, 0, 983091, 15, 131073, 983092, 14, 0, 983093, 14, 0, 983094, 14, 0, 983095, 14, 0, 983096, 14, 0, 983097, 14, 0, 983098, 14, 0, 983099, 15, 131073, 983100, 15, 131072, 983101, 15, 131072, 983102, 15, 0, 983103, 15, 0, 983104, 15, 1, 983105, 14, 2, 983106, 14, 2, 983107, 15, 1, 983108, 14, 65536, 983109, 14, 2, 1048576, 14, 65538, 1048577, 14, 65536, 1048578, 14, 65538, 1048579, 14, 2, 1048580, 14, 1, 1048581, 14, 0, 1048582, 14, 1, 1048583, 14, 0, 1048584, 14, 65538, 1048585, 14, 2, 1048586, 15, 65537, 1048587, 14, 0, 1048588, 14, 0, 1048589, 15, 0, 1048590, 15, 1, 1048591, 14, 65537, 1048592, 14, 65536, 1048593, 14, 0, 1048594, 14, 0, 1048595, 14, 0, 1048596, 14, 0, 1048597, 14, 0, 1048598, 14, 0, 1048599, 14, 0, 1048600, 14, 0, 1048601, 14, 0, 1048602, 14, 0, 1048603, 14, 2, 1048604, 14, 0, 1048605, 14, 0, 1048606, 14, 0, 1048607, 14, 0, 1048608, 14, 0, 1048609, 14, 0, 1048610, 14, 0, 1048611, 14, 0, 1048612, 14, 0, 1048613, 14, 0, 1048614, 14, 0, 1048615, 14, 0, 1048616, 14, 0, 1048617, 14, 0, 1048618, 14, 0, 1048619, 14, 0, 1048620, 14, 0, 1048621, 14, 0, 1048622, 14, 0, 1048623, 14, 0, 1048624, 14, 0, 1048625, 14, 0, 1048626, 14, 0, 1048627, 14, 0, 1048628, 14, 0, 1048629, 14, 0, 1048630, 14, 1, 1048631, 14, 2, 1048632, 14, 65536, 1048633, 14, 65538, 1048634, 15, 65537, 1048635, 15, 131073, 1048636, 14, 65537, 1048637, 15, 131073, 1048638, 15, 65537, 1048639, 15, 131072, 1048640, 15, 65537, 1048641, 15, 131073, 1048642, 15, 65536, 1048643, 15, 0, 1048644, 14, 65538, 1048645, 14, 65536, 1114112, 14, 65538, 1114113, 14, 1, 1114114, 14, 0, 1114115, 14, 65537, 1114116, 14, 65537, 1114117, 14, 2, 1114118, 14, 2, 1114119, 14, 65537, 1114120, 14, 65536, 1114121, 14, 2, 1114122, 15, 0, 1114123, 15, 131072, 1114124, 15, 131072, 1114125, 14, 65536, 1114126, 14, 2, 1114127, 14, 65536, 1114128, 14, 0, 1114129, 14, 65538, 1114130, 14, 65536, 1114131, 14, 65536, 1114132, 14, 1, 1114133, 14, 0, 1114134, 14, 65536, 1114135, 14, 0, 1114136, 14, 0, 1114137, 14, 0, 1114138, 14, 0, 1114139, 14, 0, 1114140, 14, 0, 1114141, 14, 0, 1114142, 14, 0, 1114143, 14, 0, 1114144, 14, 0, 1114145, 14, 0, 1114146, 14, 0, 1114147, 14, 0, 1114148, 14, 0, 1114149, 14, 0, 1114150, 14, 0, 1114151, 14, 0, 1114152, 14, 0, 1114153, 14, 0, 1114154, 14, 0, 1114155, 14, 0, 1114156, 14, 0, 1114157, 14, 0, 1114158, 14, 0, 1114159, 14, 0, 1114160, 14, 0, 1114161, 14, 65537, 1114162, 14, 0, 1114163, 14, 2, 1114164, 14, 65537, 1114165, 14, 65537, 1114166, 14, 65537, 1114167, 14, 1, 1114168, 14, 65537, 1114169, 14, 65537, 1114170, 14, 65538, 1114171, 14, 65536, 1114172, 14, 65538, 1114173, 14, 1, 1114174, 14, 1, 1114175, 14, 65538, 1114176, 14, 65536, 1114177, 14, 1, 1114178, 14, 65537, 1114179, 14, 65538, 1114180, 14, 0, 1114181, 14, 2, 1179648, 14, 1, 1179649, 14, 65537, 1179650, 14, 2, 1179651, 14, 65536, 1179652, 14, 65538, 1179653, 14, 0, 1179654, 14, 65536, 1179655, 14, 65537, 1179656, 14, 1, 1179657, 15, 1, 1179658, 15, 131072, 1179659, 15, 65537, 1179660, 14, 65537, 1179661, 14, 0, 1179662, 14, 1, 1179663, 14, 2, 1179664, 14, 1, 1179665, 14, 65538, 1179666, 14, 65537, 1179667, 14, 65538, 1179668, 14, 65538, 1179669, 14, 65536, 1179670, 14, 65538, 1179671, 14, 65538, 1179672, 14, 65537, 1179673, 15, 65537, 1179674, 14, 65537, 1179675, 14, 2, 1179676, 14, 65538, 1179677, 14, 0, 1179678, 14, 0, 1179679, 14, 0, 1179680, 14, 0, 1179681, 14, 0, 1179682, 14, 0, 1179683, 14, 0, 1179684, 14, 0, 1179685, 14, 0, 1179686, 14, 0, 1179687, 14, 0, 1179688, 14, 0, 1179689, 14, 0, 1179690, 14, 0, 1179691, 14, 0, 1179692, 14, 65537, 1179693, 14, 2, 1179694, 14, 65537, 1179695, 14, 65538, 1179696, 14, 65537, 1179697, 14, 65536, 1179698, 14, 2, 1179699, 14, 65536, 1179700, 14, 2, 1179701, 14, 2, 1179702, 14, 2, 1179703, 14, 2, 1179704, 14, 1, 1179705, 14, 65538, 1179706, 15, 65536, 1179707, 14, 65536, 1179708, 14, 65538, 1179709, 14, 1, 1179710, 14, 2, 1179711, 14, 65537, 1179712, 14, 0, 1179713, 14, 2, 1179714, 14, 65536, 1179715, 14, 2, 1179716, 14, 2, 1179717, 14, 65536, 1245184, 14, 0, 1245185, 14, 1, 1245186, 14, 65536, 1245187, 14, 2, 1245188, 14, 65537, 1245189, 14, 1, 1245190, 14, 1, 1245191, 15, 131072, 1245192, 15, 65537, 1245193, 14, 65538, 1245194, 14, 1, 1245195, 14, 65536, 1245196, 15, 131072, 1245197, 14, 2, 1245198, 14, 1, 1245199, 14, 65537, 1245200, 14, 0, 1245201, 14, 65536, 1245202, 14, 2, 1245203, 14, 1, 1245204, 14, 65536, 1245205, 14, 1, 1245206, 14, 65538, 1245207, 14, 65537, 1245208, 14, 2, 1245209, 14, 2, 1245210, 15, 0, 1245211, 15, 131073, 1245212, 14, 65536, 1245213, 14, 0, 1245214, 14, 0, 1245215, 14, 0, 1245216, 14, 0, 1245217, 14, 0, 1245218, 14, 0, 1245219, 14, 0, 1245220, 14, 0, 1245221, 14, 0, 1245222, 14, 0, 1245223, 14, 0, 1245224, 14, 65536, 1245225, 14, 65538, 1245226, 14, 65537, 1245227, 14, 2, 1245228, 14, 2, 1245229, 14, 65537, 1245230, 14, 65538, 1245231, 14, 0, 1245232, 14, 0, 1245233, 14, 0, 1245234, 14, 1, 1245235, 14, 2, 1245236, 14, 2, 1245237, 14, 65538, 1245238, 14, 0, 1245239, 14, 65536, 1245240, 14, 0, 1245241, 15, 131073, 1245242, 15, 1, 1245243, 14, 2, 1245244, 14, 0, 1245245, 14, 1, 1245246, 14, 2, 1245247, 14, 65538, 1245248, 14, 65538, 1245249, 14, 65538, 1245250, 14, 0, 1245251, 14, 1, 1245252, 14, 65538, 1245253, 14, 65536, 1310720, 14, 2, 1310721, 14, 2, 1310722, 14, 65537, 1310723, 14, 65536, 1310724, 14, 65538, 1310725, 15, 131072, 1310726, 15, 65537, 1310727, 14, 65538, 1310728, 14, 65536, 1310729, 14, 65537, 1310730, 14, 1, 1310731, 14, 1, 1310732, 15, 131073, 1310733, 14, 2, 1310734, 14, 1, 1310735, 14, 65538, 1310736, 14, 65538, 1310737, 14, 0, 1310738, 14, 65538, 1310739, 14, 65538, 1310740, 14, 65538, 1310741, 14, 1, 1310742, 14, 0, 1310743, 14, 65536, 1310744, 14, 0, 1310745, 14, 65538, 1310746, 14, 1, 1310747, 14, 1, 1310748, 15, 131073, 1310749, 14, 0, 1310750, 14, 0, 1310751, 14, 0, 1310752, 14, 0, 1310753, 14, 0, 1310754, 14, 0, 1310755, 14, 0, 1310756, 14, 0, 1310757, 14, 0, 1310758, 14, 0, 1310759, 14, 0, 1310760, 14, 0, 1310761, 14, 0, 1310762, 14, 65537, 1310763, 14, 1, 1310764, 14, 65536, 1310765, 14, 65537, 1310766, 14, 0, 1310767, 14, 65537, 1310768, 14, 0, 1310769, 14, 65538, 1310770, 14, 65538, 1310771, 14, 65538, 1310772, 14, 0, 1310773, 14, 0, 1310774, 14, 1, 1310775, 14, 2, 1310776, 15, 1, 1310777, 14, 65536, 1310778, 15, 0, 1310779, 14, 65536, 1310780, 14, 65538, 1310781, 14, 0, 1310782, 14, 65538, 1310783, 14, 65537, 1310784, 14, 65537, 1310785, 14, 2, 1310786, 14, 1, 1310787, 14, 65536, 1310788, 14, 0, 1310789, 14, 65538, 1376256, 14, 65537, 1376257, 14, 65537, 1376258, 14, 65537, 1376259, 14, 65536, 1376260, 14, 1, 1376261, 14, 2, 1376262, 14, 65537, 1376263, 14, 65538, 1376264, 14, 2, 1376265, 14, 65536, 1376266, 14, 65538, 1376267, 14, 1, 1376268, 14, 65538, 1376269, 15, 131072, 1376270, 14, 65537, 1376271, 14, 0, 1376272, 14, 1, 1376273, 14, 65537, 1376274, 14, 1, 1376275, 14, 2, 1376276, 14, 65536, 1376277, 14, 65538, 1376278, 14, 1, 1376279, 14, 1, 1376280, 14, 65538, 1376281, 14, 65536, 1376282, 14, 0, 1376283, 14, 65536, 1376284, 14, 0, 1376285, 14, 0, 1376286, 14, 0, 1376287, 14, 0, 1376288, 14, 0, 1376289, 14, 0, 1376290, 14, 0, 1376291, 14, 0, 1376292, 14, 0, 1376293, 14, 0, 1376294, 14, 0, 1376295, 14, 0, 1376296, 14, 0, 1376297, 14, 0, 1376298, 14, 0, 1376299, 14, 0, 1376300, 14, 0, 1376301, 14, 0, 1376302, 14, 65538, 1376303, 14, 65537, 1376304, 14, 2, 1376305, 14, 0, 1376306, 14, 65536, 1376307, 14, 2, 1376308, 14, 0, 1376309, 14, 65537, 1376310, 14, 0, 1376311, 15, 131072, 1376312, 14, 0, 1376313, 14, 65538, 1376314, 15, 131072, 1376315, 14, 2, 1376316, 14, 1, 1376317, 14, 65536, 1376318, 14, 0, 1376319, 14, 65537, 1376320, 14, 0, 1376321, 14, 0, 1376322, 14, 1, 1376323, 14, 65536, 1376324, 14, 65538, 1376325, 14, 65536, 1441792, 14, 2, 1441793, 14, 65538, 1441794, 14, 1, 1441795, 14, 2, 1441796, 14, 65538, 1441797, 14, 1, 1441798, 14, 65538, 1441799, 14, 1, 1441800, 14, 0, 1441801, 14, 65538, 1441802, 14, 65537, 1441803, 14, 0, 1441804, 14, 0, 1441805, 15, 65537, 1441806, 14, 65536, 1441807, 14, 2, 1441808, 14, 0, 1441809, 14, 2, 1441810, 15, 131073, 1441811, 15, 131072, 1441812, 15, 65537, 1441813, 15, 65536, 1441814, 14, 2, 1441815, 14, 65538, 1441816, 14, 2, 1441817, 14, 0, 1441818, 14, 0, 1441819, 14, 0, 1441820, 14, 0, 1441821, 14, 0, 1441822, 14, 0, 1441823, 14, 0, 1441824, 14, 0, 1441825, 14, 0, 1441826, 14, 0, 1441827, 14, 0, 1441828, 14, 0, 1441829, 14, 0, 1441830, 14, 0, 1441831, 14, 0, 1441832, 15, 1, 1441833, 14, 0, 1441834, 14, 0, 1441835, 14, 0, 1441836, 14, 0, 1441837, 14, 0, 1441838, 14, 0, 1441839, 14, 0, 1441840, 14, 0, 1441841, 14, 0, 1441842, 14, 2, 1441843, 14, 65537, 1441844, 14, 65537, 1441845, 14, 2, 1441846, 15, 65536, 1441847, 14, 2, 1441848, 14, 65536, 1441849, 14, 2, 1441850, 15, 65536, 1441851, 15, 65537, 1441852, 15, 131073, 1441853, 15, 131073, 1441854, 15, 0, 1441855, 14, 65536, 1441856, 14, 65537, 1441857, 14, 1, 1441858, 14, 1, 1441859, 14, 65537, 1441860, 14, 65536, 1441861, 14, 65537, 1507328, 14, 0, 1507329, 14, 1, 1507330, 14, 65536, 1507331, 14, 65538, 1507332, 14, 2, 1507333, 14, 65537, 1507334, 14, 65538, 1507335, 14, 1, 1507336, 14, 65538, 1507337, 14, 2, 1507338, 14, 2, 1507339, 14, 1, 1507340, 14, 65536, 1507341, 14, 65537, 1507342, 15, 65537, 1507343, 14, 0, 1507344, 14, 65536, 1507345, 14, 0, 1507346, 14, 65537, 1507347, 14, 65538, 1507348, 14, 0, 1507349, 14, 0, 1507350, 14, 0, 1507351, 14, 0, 1507352, 14, 0, 1507353, 14, 0, 1507354, 14, 0, 1507355, 14, 0, 1507356, 14, 0, 1507357, 14, 0, 1507358, 14, 0, 1507359, 14, 0, 1507360, 14, 0, 1507361, 14, 0, 1507362, 14, 0, 1507363, 14, 0, 1507364, 14, 0, 1507365, 14, 0, 1507366, 14, 0, 1507367, 14, 0, 1507368, 15, 1, 1507369, 15, 0, 1507370, 14, 0, 1507371, 14, 0, 1507372, 14, 0, 1507373, 14, 0, 1507374, 14, 0, 1507375, 14, 0, 1507376, 14, 0, 1507377, 15, 1, 1507378, 14, 0, 1507379, 14, 0, 1507380, 14, 0, 1507381, 15, 65536, 1507382, 15, 65537, 1507383, 15, 65536, 1507384, 15, 0, 1507385, 15, 65537, 1507386, 15, 0, 1507387, 14, 65538, 1507388, 14, 0, 1507389, 14, 1, 1507390, 14, 0, 1507391, 14, 65538, 1507392, 14, 0, 1507393, 14, 65537, 1507394, 14, 65538, 1507395, 14, 65538, 1507396, 14, 65537, 1507397, 14, 65538, 1572864, 14, 0, 1572865, 14, 65536, 1572866, 14, 2, 1572867, 14, 1, 1572868, 14, 65536, 1572869, 14, 0, 1572870, 14, 65537, 1572871, 14, 0, 1572872, 14, 65538, 1572873, 14, 65538, 1572874, 14, 65537, 1572875, 14, 65536, 1572876, 14, 65536, 1572877, 14, 65537, 1572878, 14, 0, 1572879, 15, 65536, 1572880, 14, 65538, 1572881, 14, 65536, 1572882, 14, 0, 1572883, 14, 0, 1572884, 14, 0, 1572885, 14, 0, 1572886, 14, 0, 1572887, 14, 0, 1572888, 14, 0, 1572889, 14, 0, 1572890, 14, 0, 1572891, 15, 65537, 1572892, 15, 1, 1572893, 15, 131072, 1572894, 15, 131073, 1572895, 15, 65537, 1572896, 15, 65536, 1572897, 15, 0, 1572898, 15, 65536, 1572899, 15, 65537, 1572900, 15, 1, 1572901, 15, 1, 1572902, 15, 65537, 1572903, 15, 131073, 1572904, 15, 0, 1572905, 15, 0, 1572906, 14, 65537, 1572907, 14, 65536, 1572908, 14, 0, 1572909, 14, 0, 1572910, 14, 0, 1572911, 14, 0, 1572912, 14, 0, 1572913, 14, 0, 1572914, 14, 0, 1572915, 14, 2, 1572916, 15, 1, 1572917, 14, 0, 1572918, 14, 0, 1572919, 14, 0, 1572920, 14, 0, 1572921, 15, 1, 1572922, 15, 1, 1572923, 14, 1, 1572924, 14, 2, 1572925, 14, 1, 1572926, 14, 65536, 1572927, 14, 2, 1572928, 14, 1, 1572929, 14, 65536, 1572930, 14, 65538, 1572931, 14, 0, 1572932, 14, 2, 1572933, 14, 65537, 1638400, 14, 65537, 1638401, 14, 1, 1638402, 14, 65538, 1638403, 14, 65536, 1638404, 14, 65538, 1638405, 14, 65537, 1638406, 14, 2, 1638407, 14, 65536, 1638408, 14, 65536, 1638409, 14, 2, 1638410, 14, 65536, 1638411, 14, 65538, 1638412, 14, 1, 1638413, 14, 1, 1638414, 14, 65536, 1638415, 14, 0, 1638416, 14, 0, 1638417, 14, 0, 1638418, 15, 65536, 1638419, 14, 0, 1638420, 14, 0, 1638421, 14, 0, 1638422, 14, 0, 1638423, 14, 0, 1638424, 14, 0, 1638425, 15, 65536, 1638426, 14, 2, 1638427, 14, 2, 1638428, 14, 65537, 1638429, 14, 65536, 1638430, 14, 0, 1638431, 15, 65536, 1638432, 15, 65537, 1638433, 15, 0, 1638434, 15, 0, 1638435, 15, 0, 1638436, 15, 131073, 1638437, 15, 65536, 1638438, 15, 65536, 1638439, 15, 0, 1638440, 14, 65536, 1638441, 14, 65537, 1638442, 14, 65537, 1638443, 14, 65536, 1638444, 14, 2, 1638445, 14, 65536, 1638446, 14, 0, 1638447, 14, 0, 1638448, 14, 0, 1638449, 14, 0, 1638450, 14, 0, 1638451, 14, 0, 1638452, 14, 0, 1638453, 14, 0, 1638454, 14, 65537, 1638455, 14, 1, 1638456, 15, 1, 1638457, 14, 0, 1638458, 14, 0, 1638459, 14, 0, 1638460, 14, 0, 1638461, 14, 1, 1638462, 14, 2, 1638463, 14, 65538, 1638464, 14, 65538, 1638465, 14, 1, 1638466, 14, 65536, 1638467, 14, 2, 1638468, 14, 65538, 1638469, 14, 65537, 1703936, 14, 2, 1703937, 14, 65537, 1703938, 14, 65536, 1703939, 14, 2, 1703940, 14, 1, 1703941, 14, 65538, 1703942, 14, 1, 1703943, 14, 2, 1703944, 14, 65537, 1703945, 14, 65538, 1703946, 14, 65537, 1703947, 14, 0, 1703948, 14, 0, 1703949, 14, 0, 1703950, 14, 0, 1703951, 14, 65537, 1703952, 14, 0, 1703953, 14, 0, 1703954, 14, 0, 1703955, 14, 0, 1703956, 14, 0, 1703957, 14, 0, 1703958, 14, 0, 1703959, 14, 2, 1703960, 14, 65536, 1703961, 14, 65537, 1703962, 15, 131073, 1703963, 15, 65536, 1703964, 15, 0, 1703965, 15, 131072, 1703966, 15, 131072, 1703967, 14, 2, 1703968, 14, 0, 1703969, 14, 65537, 1703970, 15, 1, 1703971, 15, 65537, 1703972, 15, 65536, 1703973, 15, 65537, 1703974, 15, 65536, 1703975, 15, 65536, 1703976, 15, 0, 1703977, 15, 65537, 1703978, 14, 0, 1703979, 14, 65538, 1703980, 14, 65537, 1703981, 14, 65537, 1703982, 14, 2, 1703983, 14, 65537, 1703984, 14, 0, 1703985, 14, 0, 1703986, 14, 0, 1703987, 14, 0, 1703988, 14, 0, 1703989, 14, 0, 1703990, 14, 0, 1703991, 14, 0, 1703992, 14, 0, 1703993, 15, 131072, 1703994, 15, 131072, 1703995, 14, 0, 1703996, 14, 0, 1703997, 14, 0, 1703998, 14, 0, 1703999, 14, 0, 1704000, 14, 0, 1704001, 14, 2, 1704002, 14, 65536, 1704003, 14, 0, 1704004, 14, 0, 1704005, 14, 65537, 1769472, 14, 65538, 1769473, 14, 2, 1769474, 14, 65536, 1769475, 14, 1, 1769476, 14, 2, 1769477, 14, 65538, 1769478, 14, 65537, 1769479, 14, 65537, 1769480, 14, 1, 1769481, 14, 0, 1769482, 14, 0, 1769483, 14, 65536, 1769484, 14, 65537, 1769485, 14, 0, 1769486, 14, 0, 1769487, 14, 0, 1769488, 14, 0, 1769489, 14, 0, 1769490, 14, 0, 1769491, 14, 0, 1769492, 14, 0, 1769493, 15, 65537, 1769494, 15, 131073, 1769495, 15, 1, 1769496, 15, 131073, 1769497, 15, 65536, 1769498, 14, 65538, 1769499, 14, 65536, 1769500, 14, 65538, 1769501, 14, 2, 1769502, 14, 2, 1769503, 14, 2, 1769504, 14, 1, 1769505, 14, 65536, 1769506, 14, 1, 1769507, 14, 0, 1769508, 14, 65538, 1769509, 14, 65538, 1769510, 14, 1, 1769511, 14, 65537, 1769512, 15, 0, 1769513, 15, 131073, 1769514, 14, 65538, 1769515, 14, 65536, 1769516, 14, 65536, 1769517, 14, 0, 1769518, 14, 2, 1769519, 14, 65536, 1769520, 14, 65537, 1769521, 14, 0, 1769522, 14, 0, 1769523, 14, 0, 1769524, 14, 0, 1769525, 14, 0, 1769526, 14, 0, 1769527, 14, 0, 1769528, 14, 0, 1769529, 14, 0, 1769530, 14, 0, 1769531, 14, 0, 1769532, 14, 1, 1769533, 14, 65537, 1769534, 14, 0, 1769535, 14, 0, 1769536, 14, 65537, 1769537, 14, 0, 1769538, 14, 0, 1769539, 14, 65537, 1769540, 14, 65536, 1769541, 14, 65536, 1835008, 14, 65537, 1835009, 14, 0, 1835010, 14, 2, 1835011, 14, 0, 1835012, 14, 65536, 1835013, 14, 0, 1835014, 14, 2, 1835015, 14, 1, 1835016, 14, 2, 1835017, 14, 65536, 1835018, 14, 0, 1835019, 14, 0, 1835020, 14, 0, 1835021, 14, 0, 1835022, 14, 0, 1835023, 14, 0, 1835024, 14, 0, 1835025, 14, 0, 1835026, 14, 0, 1835027, 15, 65536, 1835028, 15, 65537, 1835029, 15, 131072, 1835030, 15, 1, 1835031, 15, 65536, 1835032, 15, 65537, 1835033, 15, 131072, 1835034, 15, 1, 1835035, 15, 131073, 1835036, 15, 131072, 1835037, 15, 0, 1835038, 15, 65536, 1835039, 15, 65537, 1835040, 15, 0, 1835041, 15, 131073, 1835042, 14, 2, 1835043, 14, 65538, 1835044, 15, 1, 1835045, 15, 65536, 1835046, 15, 65536, 1835047, 15, 65536, 1835048, 14, 2, 1835049, 15, 0, 1835050, 15, 65537, 1835051, 14, 0, 1835052, 14, 65538, 1835053, 14, 65537, 1835054, 14, 0, 1835055, 14, 1, 1835056, 14, 65538, 1835057, 15, 131073, 1835058, 14, 65538, 1835059, 14, 0, 1835060, 14, 0, 1835061, 14, 0, 1835062, 14, 0, 1835063, 14, 0, 1835064, 14, 0, 1835065, 14, 0, 1835066, 14, 0, 1835067, 14, 0, 1835068, 14, 0, 1835069, 14, 0, 1835070, 14, 0, 1835071, 15, 65537, 1835072, 15, 65536, 1835073, 15, 0, 1835074, 15, 65537, 1835075, 15, 0, 1835076, 14, 65536, 1835077, 14, 65536, 1900544, 14, 2, 1900545, 14, 1, 1900546, 14, 1, 1900547, 14, 1, 1900548, 14, 2, 1900549, 14, 65536, 1900550, 14, 0, 1900551, 14, 65536, 1900552, 14, 0, 1900553, 14, 0, 1900554, 14, 0, 1900555, 14, 0, 1900556, 14, 0, 1900557, 14, 0, 1900558, 14, 0, 1900559, 14, 0, 1900560, 14, 0, 1900561, 14, 0, 1900562, 15, 65537, 1900563, 15, 65536, 1900564, 15, 131073, 1900565, 15, 131072, 1900566, 15, 131073, 1900567, 15, 1, 1900568, 15, 131073, 1900569, 15, 0, 1900570, 15, 65537, 1900571, 15, 131072, 1900572, 15, 1, 1900573, 15, 0, 1900574, 14, 65538, 1900575, 14, 65537, 1900576, 14, 65536, 1900577, 14, 0, 1900578, 14, 2, 1900579, 14, 65537, 1900580, 14, 65538, 1900581, 14, 65538, 1900582, 14, 1, 1900583, 14, 1, 1900584, 14, 0, 1900585, 14, 65538, 1900586, 14, 0, 1900587, 15, 131073, 1900588, 14, 65537, 1900589, 14, 1, 1900590, 14, 65538, 1900591, 14, 65536, 1900592, 15, 131072, 1900593, 14, 65537, 1900594, 14, 65536, 1900595, 14, 2, 1900596, 14, 65537, 1900597, 14, 0, 1900598, 14, 2, 1900599, 14, 0, 1900600, 14, 0, 1900601, 14, 0, 1900602, 14, 0, 1900603, 14, 0, 1900604, 14, 0, 1900605, 14, 0, 1900606, 14, 0, 1900607, 14, 0, 1900608, 14, 0, 1900609, 15, 1, 1900610, 15, 131073, 1900611, 15, 131073, 1900612, 14, 1, 1900613, 14, 65537, 1966080, 14, 0, 1966081, 14, 65536, 1966082, 14, 65538, 1966083, 14, 65537, 1966084, 14, 65537, 1966085, 14, 0, 1966086, 14, 0, 1966087, 14, 0, 1966088, 14, 0, 1966089, 14, 0, 1966090, 14, 0, 1966091, 14, 0, 1966092, 14, 0, 1966093, 14, 0, 1966094, 14, 0, 1966095, 14, 2, 1966096, 14, 65538, 1966097, 14, 65536, 1966098, 15, 131073, 1966099, 15, 131073, 1966100, 15, 1, 1966101, 15, 65536, 1966102, 15, 131073, 1966103, 15, 131073, 1966104, 15, 131072, 1966105, 15, 0, 1966106, 15, 65537, 1966107, 15, 131072, 1966108, 15, 131072, 1966109, 15, 131073, 1966110, 14, 0, 1966111, 14, 65536, 1966112, 14, 1, 1966113, 14, 0, 1966114, 14, 65537, 1966115, 14, 2, 1966116, 14, 1, 1966117, 14, 65537, 1966118, 14, 65536, 1966119, 14, 2, 1966120, 14, 0, 1966121, 14, 1, 1966122, 14, 65536, 1966123, 14, 2, 1966124, 15, 131072, 1966125, 15, 131073, 1966126, 14, 1, 1966127, 15, 1, 1966128, 14, 65536, 1966129, 14, 65537, 1966130, 14, 2, 1966131, 14, 65538, 1966132, 14, 1, 1966133, 14, 65538, 1966134, 14, 0, 1966135, 14, 0, 1966136, 14, 1, 1966137, 14, 0, 1966138, 14, 0, 1966139, 14, 0, 1966140, 14, 0, 1966141, 14, 0, 1966142, 14, 0, 1966143, 15, 0, 1966144, 15, 131073, 1966145, 15, 131072, 1966146, 15, 1, 1966147, 15, 1, 1966148, 14, 0, 1966149, 14, 1, 2031616, 14, 1, 2031617, 14, 65536, 2031618, 14, 2, 2031619, 14, 0, 2031620, 14, 0, 2031621, 14, 0, 2031622, 14, 0, 2031623, 14, 0, 2031624, 14, 0, 2031625, 14, 0, 2031626, 14, 0, 2031627, 14, 0, 2031628, 14, 0, 2031629, 15, 1, 2031630, 15, 131073, 2031631, 14, 2, 2031632, 14, 65537, 2031633, 14, 0, 2031634, 15, 65536, 2031635, 15, 1, 2031636, 15, 131073, 2031637, 15, 131072, 2031638, 15, 65536, 2031639, 15, 0, 2031640, 15, 0, 2031641, 15, 65536, 2031642, 15, 65537, 2031643, 15, 1, 2031644, 14, 0, 2031645, 14, 65536, 2031646, 14, 65537, 2031647, 14, 65537, 2031648, 14, 65536, 2031649, 14, 2, 2031650, 14, 65538, 2031651, 14, 65538, 2031652, 14, 0, 2031653, 14, 1, 2031654, 14, 65538, 2031655, 14, 2, 2031656, 14, 65538, 2031657, 14, 65538, 2031658, 14, 65538, 2031659, 14, 65538, 2031660, 14, 65537, 2031661, 14, 65538, 2031662, 15, 131072, 2031663, 15, 65536, 2031664, 14, 1, 2031665, 14, 0, 2031666, 14, 0, 2031667, 14, 65538, 2031668, 14, 65538, 2031669, 14, 1, 2031670, 14, 2, 2031671, 14, 1, 2031672, 14, 0, 2031673, 14, 0, 2031674, 14, 65538, 2031675, 14, 0, 2031676, 14, 0, 2031677, 14, 0, 2031678, 14, 0, 2031679, 14, 0, 2031680, 14, 0, 2031681, 15, 1, 2031682, 15, 0, 2031683, 15, 1, 2031684, 14, 1, 2031685, 14, 2, 2097152, 14, 65537, 2097153, 14, 2, 2097154, 14, 65537, 2097155, 14, 65538, 2097156, 14, 65537, 2097157, 14, 65537, 2097158, 14, 1, 2097159, 14, 0, 2097160, 14, 0, 2097161, 14, 0, 2097162, 14, 0, 2097163, 14, 65538, 2097164, 14, 65538, 2097165, 14, 1, 2097166, 14, 65536, 2097167, 14, 65536, 2097168, 14, 1, 2097169, 14, 65537, 2097170, 14, 65537, 2097171, 14, 65536, 2097172, 14, 2, 2097173, 14, 65537, 2097174, 14, 65536, 2097175, 14, 0, 2097176, 14, 0, 2097177, 14, 65537, 2097178, 14, 65538, 2097179, 14, 2, 2097180, 14, 65536, 2097181, 14, 65538, 2097182, 14, 65536, 2097183, 14, 65536, 2097184, 14, 65537, 2097185, 14, 2, 2097186, 14, 65537, 2097187, 14, 65536, 2097188, 14, 65536, 2097189, 14, 1, 2097190, 14, 65537, 2097191, 14, 1, 2097192, 14, 1, 2097193, 14, 65537, 2097194, 14, 2, 2097195, 14, 65536, 2097196, 14, 0, 2097197, 14, 65538, 2097198, 14, 65538, 2097199, 14, 65538, 2097200, 15, 65536, 2097201, 14, 65537, 2097202, 14, 2, 2097203, 14, 65538, 2097204, 14, 65537, 2097205, 14, 1, 2097206, 14, 65536, 2097207, 14, 1, 2097208, 14, 0, 2097209, 14, 2, 2097210, 14, 0, 2097211, 14, 0, 2097212, 15, 65536, 2097213, 15, 131073, 2097214, 15, 1, 2097215, 14, 0, 2097216, 14, 0, 2097217, 15, 65536, 2097218, 15, 65537, 2097219, 15, 65536, 2097220, 14, 65536, 2097221, 14, 2, 2162688, 14, 65536, 2162689, 14, 0, 2162690, 14, 65538, 2162691, 14, 65536, 2162692, 14, 65536, 2162693, 14, 0, 2162694, 14, 0, 2162695, 14, 0, 2162696, 14, 0, 2162697, 14, 65537, 2162698, 14, 2, 2162699, 14, 65537, 2162700, 14, 0, 2162701, 14, 0, 2162702, 14, 0, 2162703, 14, 65538, 2162704, 14, 65537, 2162705, 14, 1, 2162706, 14, 65537, 2162707, 14, 65538, 2162708, 14, 2, 2162709, 14, 65536, 2162710, 14, 1, 2162711, 14, 65537, 2162712, 14, 2, 2162713, 14, 0, 2162714, 14, 65538, 2162715, 14, 1, 2162716, 14, 2, 2162717, 14, 65538, 2162718, 14, 1, 2162719, 14, 65536, 2162720, 14, 2, 2162721, 14, 65538, 2162722, 14, 1, 2162723, 14, 2, 2162724, 14, 65536, 2162725, 14, 1, 2162726, 14, 65538, 2162727, 14, 0, 2162728, 14, 65537, 2162729, 14, 65537, 2162730, 14, 65538, 2162731, 14, 0, 2162732, 14, 65538, 2162733, 14, 65538, 2162734, 14, 2, 2162735, 14, 65537, 2162736, 14, 1, 2162737, 15, 1, 2162738, 15, 65537, 2162739, 14, 65537, 2162740, 14, 0, 2162741, 14, 65537, 2162742, 14, 0, 2162743, 14, 65538, 2162744, 14, 65538, 2162745, 14, 65536, 2162746, 14, 0, 2162747, 14, 65537, 2162748, 14, 0, 2162749, 15, 65537, 2162750, 15, 131072, 2162751, 15, 1, 2162752, 15, 65537, 2162753, 14, 0, 2162754, 14, 0, 2162755, 15, 1, 2162756, 14, 0, 2162757, 14, 65538, 2228224, 14, 65536, 2228225, 14, 0, 2228226, 14, 0, 2228227, 14, 0, 2228228, 14, 0, 2228229, 14, 0, 2228230, 14, 0, 2228231, 14, 2, 2228232, 14, 1, 2228233, 14, 65538, 2228234, 14, 1, 2228235, 14, 65536, 2228236, 14, 65538, 2228237, 14, 0, 2228238, 14, 2, 2228239, 14, 65536, 2228240, 14, 0, 2228241, 14, 1, 2228242, 14, 1, 2228243, 14, 65538, 2228244, 14, 65537, 2228245, 14, 65536, 2228246, 14, 65537, 2228247, 14, 0, 2228248, 14, 65538, 2228249, 14, 2, 2228250, 14, 65538, 2228251, 14, 1, 2228252, 14, 65537, 2228253, 14, 0, 2228254, 14, 1, 2228255, 14, 65536, 2228256, 14, 65536, 2228257, 14, 2, 2228258, 14, 65538, 2228259, 14, 65536, 2228260, 14, 1, 2228261, 14, 1, 2228262, 14, 1, 2228263, 14, 65536, 2228264, 14, 65538, 2228265, 14, 65537, 2228266, 14, 65537, 2228267, 14, 1, 2228268, 14, 2, 2228269, 14, 65538, 2228270, 14, 2, 2228271, 14, 0, 2228272, 14, 65537, 2228273, 14, 65536, 2228274, 14, 1, 2228275, 15, 131072, 2228276, 15, 131072, 2228277, 14, 2, 2228278, 14, 0, 2228279, 14, 65538, 2228280, 14, 65538, 2228281, 14, 65537, 2228282, 14, 0, 2228283, 14, 2, 2228284, 15, 1, 2228285, 15, 0, 2228286, 15, 131072, 2228287, 15, 131072, 2228288, 15, 131073, 2228289, 15, 65536, 2228290, 15, 131073, 2228291, 15, 131073, 2228292, 14, 0, 2228293, 14, 65538, 2293760, 14, 65537, 2293761, 14, 2, 2293762, 14, 65538, 2293763, 14, 0, 2293764, 14, 2, 2293765, 14, 0, 2293766, 14, 1, 2293767, 14, 0, 2293768, 14, 65537, 2293769, 14, 2, 2293770, 14, 65538, 2293771, 14, 65538, 2293772, 14, 65537, 2293773, 14, 65536, 2293774, 14, 1, 2293775, 14, 65538, 2293776, 14, 65536, 2293777, 14, 0, 2293778, 14, 0, 2293779, 14, 65536, 2293780, 14, 65536, 2293781, 14, 0, 2293782, 14, 65538, 2293783, 14, 1, 2293784, 14, 65537, 2293785, 14, 65536, 2293786, 14, 2, 2293787, 14, 2, 2293788, 14, 65536, 2293789, 14, 2, 2293790, 14, 65537, 2293791, 14, 65538, 2293792, 14, 1, 2293793, 14, 1, 2293794, 14, 65536, 2293795, 14, 1, 2293796, 14, 65537, 2293797, 14, 0, 2293798, 14, 2, 2293799, 14, 1, 2293800, 14, 65537, 2293801, 14, 65537, 2293802, 14, 2, 2293803, 14, 0, 2293804, 14, 65536, 2293805, 14, 65538, 2293806, 14, 65538, 2293807, 14, 65538, 2293808, 14, 2, 2293809, 14, 2, 2293810, 14, 0, 2293811, 14, 65536, 2293812, 14, 1, 2293813, 15, 1, 2293814, 14, 1, 2293815, 14, 65538, 2293816, 14, 2, 2293817, 14, 65537, 2293818, 14, 65536, 2293819, 14, 2, 2293820, 15, 65536, 2293821, 15, 131072, 2293822, 15, 1, 2293823, 15, 65537, 2293824, 15, 0, 2293825, 15, 1, 2293826, 15, 131072, 2293827, 15, 0, 2293828, 14, 65538, 2293829, 14, 1, 2359296, 14, 0, 2359297, 14, 65538, 2359298, 14, 65538, 2359299, 14, 65536, 2359300, 14, 2, 2359301, 14, 0, 2359302, 14, 65537, 2359303, 14, 65536, 2359304, 14, 0, 2359305, 14, 65536, 2359306, 14, 65537, 2359307, 14, 2, 2359308, 14, 1, 2359309, 14, 65537, 2359310, 14, 2, 2359311, 14, 2, 2359312, 14, 1, 2359313, 14, 65538, 2359314, 14, 65536, 2359315, 14, 65537, 2359316, 14, 65538, 2359317, 14, 65537, 2359318, 14, 65537, 2359319, 14, 0, 2359320, 14, 65536, 2359321, 14, 0, 2359322, 14, 1, 2359323, 14, 65536, 2359324, 14, 0, 2359325, 14, 1, 2359326, 14, 2, 2359327, 14, 65536, 2359328, 14, 65536, 2359329, 14, 65536, 2359330, 14, 65536, 2359331, 14, 2, 2359332, 14, 65538, 2359333, 14, 65538, 2359334, 14, 65537, 2359335, 14, 65536, 2359336, 14, 1, 2359337, 14, 65538, 2359338, 14, 0, 2359339, 14, 65538, 2359340, 14, 65537, 2359341, 14, 65538, 2359342, 14, 65538, 2359343, 14, 2, 2359344, 14, 65536, 2359345, 14, 0, 2359346, 14, 65537, 2359347, 14, 65537, 2359348, 14, 65537, 2359349, 14, 0, 2359350, 14, 65536, 2359351, 14, 1, 2359352, 14, 65537, 2359353, 14, 65538, 2359354, 14, 0, 2359355, 14, 65536, 2359356, 14, 65536, 2359357, 14, 65538, 2359358, 14, 0, 2359359, 14, 65537, 2359360, 14, 65536, 2359361, 14, 2, 2359362, 14, 65537, 2359363, 14, 65536, 2359364, 14, 0, 2359365, 14, 65536, 2424832, 14, 65538, 2424833, 14, 0, 2424834, 14, 65538, 2424835, 14, 0, 2424836, 14, 65538, 2424837, 14, 2, 2424838, 14, 1, 2424839, 14, 2, 2424840, 14, 65537, 2424841, 14, 2, 2424842, 14, 65537, 2424843, 14, 65538, 2424844, 14, 0, 2424845, 14, 65536, 2424846, 14, 65538, 2424847, 14, 65537, 2424848, 14, 2, 2424849, 14, 65538, 2424850, 14, 0, 2424851, 14, 65536, 2424852, 14, 1, 2424853, 14, 0, 2424854, 14, 0, 2424855, 14, 65537, 2424856, 14, 0, 2424857, 14, 1, 2424858, 14, 65536, 2424859, 14, 1, 2424860, 14, 2, 2424861, 14, 2, 2424862, 14, 2, 2424863, 14, 65538, 2424864, 14, 65537, 2424865, 14, 65538, 2424866, 14, 65538, 2424867, 14, 65537, 2424868, 14, 65538, 2424869, 14, 0, 2424870, 14, 65537, 2424871, 14, 65537, 2424872, 14, 2, 2424873, 14, 65538, 2424874, 14, 2, 2424875, 14, 1, 2424876, 14, 65537, 2424877, 14, 1, 2424878, 14, 2, 2424879, 14, 65538, 2424880, 14, 65538, 2424881, 14, 65538, 2424882, 14, 0, 2424883, 14, 2, 2424884, 14, 65538, 2424885, 14, 65538, 2424886, 14, 0, 2424887, 14, 1, 2424888, 14, 65538, 2424889, 14, 65537, 2424890, 14, 65537, 2424891, 14, 65538, 2424892, 14, 1, 2424893, 14, 2, 2424894, 14, 65538, 2424895, 14, 65536, 2424896, 14, 2, 2424897, 14, 1, 2424898, 14, 65537, 2424899, 14, 1, 2424900, 14, 2, 2424901, 14, 65538 )
__meta__ = {
"_editor_description_": ""
}

[node name="Walls" type="TileMap" parent="."]
tile_set = ExtResource( 1 )
cell_size = Vector2( 16, 16 )
cell_custom_transform = Transform2D( 36, 0, 0, 36, 0, 0 )
format = 1
tile_data = PoolIntArray( 0, 4, 0, 1, 8, 1, 2, 3, 0, 3, 8, 1, 4, 3, 0, 5, 8, 1, 6, 3, 0, 7, 8, 1, 8, 3, 0, 9, 8, 1, 10, 3, 0, 11, 3, 0, 12, 3, 0, 13, 3, 0, 14, 3, 0, 15, 3, 0, 16, 3, 0, 17, 3, 0, 18, 3, 0, 19, 3, 0, 20, 3, 0, 21, 3, 0, 22, 3, 0, 23, 3, 0, 24, 3, 0, 25, 3, 0, 26, 3, 0, 27, 3, 0, 28, 3, 0, 29, 3, 0, 30, 3, 0, 31, 3, 0, 32, 3, 0, 33, 3, 0, 34, 3, 0, 35, 3, 0, 36, 3, 0, 37, 3, 0, 38, 3, 0, 39, 3, 0, 40, 3, 0, 41, 3, 0, 42, 3, 0, 43, 3, 0, 44, 3, 0, 45, 3, 0, 46, 3, 0, 47, 3, 0, 48, 3, 0, 49, 3, 0, 50, 3, 0, 51, 3, 0, 52, 3, 0, 53, 3, 0, 54, 3, 0, 55, 3, 0, 56, 3, 0, 57, 3, 0, 58, 3, 0, 59, 3, 0, 60, 8, 2, 61, 3, 0, 62, 8, 2, 63, 3, 0, 64, 8, 2, 65, 3, 0, 66, 8, 2, 67, 3, 0, 68, 8, 2, 69, 4, 1, 65536, 4, 65536, 65537, 8, 196608, 65538, 3, 65536, 65539, 8, 196609, 65540, 3, 65536, 65541, 8, 196608, 65542, 3, 65536, 65543, 8, 196609, 65544, 3, 65536, 65545, 8, 196610, 65546, 3, 65536, 65547, 3, 65536, 65548, 3, 65536, 65549, 3, 65536, 65550, 3, 65536, 65551, 3, 65536, 65552, 3, 65536, 65553, 3, 65536, 65554, 3, 65536, 65555, 3, 65536, 65556, 3, 65536, 65557, 3, 65536, 65558, 3, 65536, 65559, 3, 65536, 65560, 3, 65536, 65561, 3, 65536, 65562, 3, 65536, 65563, 3, 65536, 65564, 3, 65536, 65565, 3, 65536, 65566, 3, 65536, 65567, 3, 65536, 65568, 3, 65536, 65569, 3, 65536, 65570, 3, 65536, 65571, 3, 65536, 65572, 3, 65536, 65573, 3, 65536, 65574, 3, 65536, 65575, 3, 65536, 65576, 3, 65536, 65577, 3, 65536, 65578, 3, 65536, 65579, 3, 65536, 65580, 3, 65536, 65581, 3, 65536, 65582, 3, 65536, 65583, 3, 65536, 65584, 3, 65536, 65585, 3, 65536, 65586, 3, 65536, 65587, 3, 65536, 65588, 3, 65536, 65589, 3, 65536, 65590, 3, 65536, 65591, 3, 65536, 65592, 3, 65536, 65593, 3, 65536, 65594, 3, 65536, 65595, 3, 65536, 65596, 8, 65538, 65597, 3, 65536, 65598, 8, 65538, 65599, 3, 65536, 65600, 8, 65537, 65601, 3, 65536, 65602, 8, 65536, 65603, 3, 65536, 65604, 8, 65536, 65605, 4, 65537, 131072, 6, 65537, 131141, 6, 65536, 196608, 6, 65537, 196677, 6, 65536, 262144, 6, 65537, 262213, 6, 65536, 327680, 6, 65537, 327749, 6, 65536, 393216, 6, 65537, 393285, 6, 65536, 458752, 6, 65537, 458821, 6, 65536, 524288, 6, 65537, 524357, 6, 65536, 589824, 6, 65537, 589893, 6, 65536, 655360, 6, 65537, 655429, 6, 65536, 720896, 6, 65537, 720965, 6, 65536, 786432, 6, 65537, 786501, 6, 65536, 851968, 6, 65537, 852037, 6, 65536, 917504, 6, 65537, 917573, 6, 65536, 983040, 6, 65537, 983109, 6, 65536, 1048576, 6, 65537, 1048645, 6, 65536, 1114112, 6, 65537, 1114181, 6, 65536, 1179648, 6, 65537, 1179717, 6, 65536, 1245184, 6, 65537, 1245253, 6, 65536, 1310720, 6, 65537, 1310789, 6, 65536, 1376256, 6, 65537, 1376325, 6, 65536, 1441792, 6, 65537, 1441861, 6, 65536, 1507328, 6, 65537, 1507397, 6, 65536, 1572864, 6, 65537, 1572933, 6, 65536, 1638400, 6, 65537, 1638469, 6, 65536, 1703936, 6, 65537, 1704005, 6, 65536, 1769472, 6, 65537, 1769541, 6, 65536, 1835008, 6, 65537, 1835077, 6, 65536, 1900544, 6, 65537, 1900613, 6, 65536, 1966080, 6, 65537, 1966149, 6, 65536, 2031616, 6, 65537, 2031685, 6, 65536, 2097152, 6, 65537, 2097221, 6, 65536, 2162688, 6, 65537, 2162757, 6, 65536, 2228224, 6, 65537, 2228293, 6, 65536, 2293760, 6, 65537, 2293829, 6, 65536, 2359296, 6, 65537, 2359365, 6, 65536, 2424832, 4, 131072, 2424833, 3, 0, 2424834, 3, 0, 2424835, 3, 0, 2424836, 3, 0, 2424837, 3, 0, 2424838, 3, 0, 2424839, 3, 0, 2424840, 3, 0, 2424841, 3, 0, 2424842, 3, 0, 2424843, 3, 0, 2424844, 3, 0, 2424845, 3, 0, 2424846, 3, 0, 2424847, 3, 0, 2424848, 3, 0, 2424849, 3, 0, 2424850, 3, 0, 2424851, 3, 0, 2424852, 3, 0, 2424853, 3, 0, 2424854, 3, 0, 2424855, 3, 0, 2424856, 3, 0, 2424857, 3, 0, 2424858, 3, 0, 2424859, 3, 0, 2424860, 3, 0, 2424861, 3, 0, 2424862, 3, 0, 2424863, 3, 0, 2424864, 3, 0, 2424865, 3, 0, 2424866, 3, 0, 2424867, 3, 0, 2424868, 3, 0, 2424869, 3, 0, 2424870, 3, 1, 2424871, 3, 1, 2424872, 3, 1, 2424873, 3, 1, 2424874, 3, 1, 2424875, 3, 1, 2424876, 3, 1, 2424877, 3, 1, 2424878, 3, 1, 2424879, 3, 1, 2424880, 3, 1, 2424881, 3, 1, 2424882, 3, 1, 2424883, 3, 1, 2424884, 3, 1, 2424885, 3, 1, 2424886, 3, 1, 2424887, 3, 1, 2424888, 3, 1, 2424889, 3, 1, 2424890, 3, 1, 2424891, 3, 1, 2424892, 3, 1, 2424893, 3, 1, 2424894, 3, 1, 2424895, 3, 1, 2424896, 3, 1, 2424897, 3, 1, 2424898, 3, 1, 2424899, 3, 1, 2424900, 3, 1, 2424901, 4, 131073, 2490368, 4, 196608, 2490369, 4, 196608, 2490370, 4, 196608, 2490371, 4, 196608, 2490372, 4, 196608, 2490373, 4, 196608, 2490374, 4, 196608, 2490375, 4, 196608, 2490376, 4, 196608, 2490377, 4, 196608, 2490378, 4, 196608, 2490379, 4, 196608, 2490380, 4, 196608, 2490381, 4, 196608, 2490382, 4, 196608, 2490383, 4, 196608, 2490384, 4, 196608, 2490385, 4, 196608, 2490386, 4, 196608, 2490387, 4, 196608, 2490388, 4, 196608, 2490389, 4, 196608, 2490390, 4, 196608, 2490391, 4, 196608, 2490392, 4, 196608, 2490393, 4, 196608, 2490394, 4, 196608, 2490395, 4, 196608, 2490396, 4, 196608, 2490397, 4, 196608, 2490398, 4, 196608, 2490399, 4, 196608, 2490400, 4, 196608, 2490401, 4, 196608, 2490402, 4, 196609, 2490403, 4, 196609, 2490404, 4, 196609, 2490405, 4, 196609, 2490406, 4, 196609, 2490407, 4, 196609, 2490408, 4, 196609, 2490409, 4, 196609, 2490410, 4, 196609, 2490411, 4, 196609, 2490412, 4, 196609, 2490413, 4, 196609, 2490414, 4, 196609, 2490415, 4, 196609, 2490416, 4, 196609, 2490417, 4, 196609, 2490418, 4, 196609, 2490419, 4, 196609, 2490420, 4, 196609, 2490421, 4, 196609, 2490422, 4, 196609, 2490423, 4, 196609, 2490424, 4, 196609, 2490425, 4, 196609, 2490426, 4, 196609, 2490427, 4, 196609, 2490428, 4, 196609, 2490429, 4, 196609, 2490430, 4, 196609, 2490431, 4, 196609, 2490432, 4, 196609, 2490433, 4, 196609, 2490434, 4, 196609, 2490435, 4, 196609, 2490436, 4, 196609, 2490437, 4, 196609 )

[node name="StaticBody2D" type="StaticBody2D" parent="Walls"]
visible = false

[node name="Top" type="CollisionShape2D" parent="Walls/StaticBody2D"]
position = Vector2( 560, 16 )
shape = SubResource( 1 )

[node name="Bottom" type="CollisionShape2D" parent="Walls/StaticBody2D"]
position = Vector2( 560, 624 )
shape = SubResource( 1 )

[node name="Left" type="CollisionShape2D" parent="Walls/StaticBody2D"]
position = Vector2( -16, 304 )
shape = SubResource( 2 )

[node name="Right" type="CollisionShape2D" parent="Walls/StaticBody2D"]
position = Vector2( 1136, 304 )
shape = SubResource( 2 )

[node name="Props" type="TileMap" parent="."]
tile_set = ExtResource( 1 )
cell_size = Vector2( 16, 16 )
cell_custom_transform = Transform2D( 36, 0, 0, 36, 0, 0 )
format = 1
tile_data = PoolIntArray( 65552, 7, 0, 65562, 7, 0, 65566, 7, 0, 65578, 7, 0, 65583, 7, 0, 65588, 7, 0, 262147, 2, 0, 262151, 2, 0, 262153, 2, 0, 262195, 12, 0, 262204, 0, 0, 262208, 0, 0, 327683, 16, 0, 327687, 16, 0, 327688, 12, 0, 327689, 16, 0, 393271, 12, 0, 393274, 2, 1, 393282, 0, 0, 458766, 12, 0, 458802, 12, 0, 524299, 12, 0, 524348, 0, 0, 524350, 0, 0, 524352, 0, 0, 655363, 2, 0, 655367, 2, 0, 655369, 2, 0, 655420, 0, 0, 655422, 0, 0, 720899, 16, 0, 720903, 16, 0, 720905, 16, 0, 720947, 12, 0, 786437, 2, 0, 786441, 2, 0, 786447, 12, 0, 786494, 0, 0, 786498, 0, 0, 851973, 16, 0, 851977, 16, 0, 917511, 12, 0, 983093, 12, 0, 1048635, 12, 0, 1572879, 12, 0, 1638406, 12, 0, 1703987, 12, 0, 1703990, 12, 0, 1769474, 12, 0, 1769481, 11, 0, 1769490, 12, 0, 1769525, 12, 0, 1769538, 9, 0, 1900556, 12, 0, 1900590, 12, 0, 1900594, 12, 0, 1900606, 9, 0, 1900608, 9, 0, 2031619, 11, 0, 2031621, 11, 0, 2031623, 11, 0, 2031625, 11, 0, 2031676, 9, 0, 2031680, 9, 0, 2162695, 11, 0, 2162699, 12, 0, 2162736, 12, 0, 2162748, 9, 0, 2162754, 9, 0, 2228227, 11, 0, 2228229, 11, 0, 2228280, 12, 0 )
__meta__ = {
"_editor_description_": ""
}
